[
  "1000mercis (Numberly)IAB TCF",
  "1020, Inc. dba Placecast and Ericsson EmodoIAB TCF",
  "152 Media LLCIAB TCF",
  "1AgencyIAB TCF",
  "1plusX AGIAB TCF",
  "2KDirect, Inc. (dba iPromote)IAB TCF",
  "33AcrossIAB TCF",
  "3Q nexx GmbHIAB TCF",
  "42 Ads GmbHIAB TCF",
  "6Sense Insights, Inc.IAB TCF",
  "7Hops.com Inc. (ZergNet)IAB TCF",
  ": TappxIAB TCF",
  "A Million AdsIAB TCF",
  "A.MobIAB TCF",
  "AA INTERNET-MEDIA LtdIAB TCF",
  "Aarki, Inc.IAB TCF",
  "AAX LLCIAB TCF",
  "Ab tasty",
  "Accorp Sp. z o.o.IAB TCF",
  "Active Agent (Virtual Minds GmbH)IAB TCF",
  "ACTV8, Inc.IAB TCF",
  "AcuityAds Inc.IAB TCF",
  "AcxiomIAB TCF",
  "Ad Alliance GmbHIAB TCF",
  "ad6mediaIAB TCF",
  "Adacado Technologies Inc. (DBA Adacado)IAB TCF",
  "adality GmbHIAB TCF",
  "ADARA MEDIA UNLIMITEDIAB TCF",
  "adbalancer Werbeagentur GmbHIAB TCF",
  "adbility media GmbHIAB TCF",
  "AdClear GmbHIAB TCF",
  "AdColony, Inc.IAB TCF",
  "AddApptr GmbHIAB TCF",
  "AdDefend GmbHIAB TCF",
  "AddrelevanceIAB TCF",
  "Adelaide Metrics IncIAB TCF",
  "AdElement Media Solutions Pvt LtdIAB TCF",
  "Adevinta Spain S.L.U.IAB TCF",
  "Adex (Virtual Minds GmbH)IAB TCF",
  "ADFI MEDIA SLIAB TCF",
  "Adform A/SIAB TCF",
  "AdGear Technologies, Inc.IAB TCF",
  "AdheseIAB TCF",
  "adhood.comIAB TCF",
  "AdikteevIAB TCF",
  "ADITION (Virtual Minds GmbH)IAB TCF",
  "Adjust Digital A/SIAB TCF",
  "Adjust GmbHIAB TCF",
  "Adkernel LLCIAB TCF",
  "Adlane LTDIAB TCF",
  "Adloox SAIAB TCF",
  "Adludio Ltd.IAB TCF",
  "ADMAN - Phaistos Networks, S.A.IAB TCF",
  "ADman Interactive SLUIAB TCF",
  "adMarketplace, Inc.IAB TCF",
  "ADMAXIAB TCF",
  "AdMaxim Inc.IAB TCF",
  "Admedo Technology LtdIAB TCF",
  "admetrics GmbHIAB TCF",
  "Admixer EU GmbHIAB TCF",
  "Admo.tv (Clickon)IAB TCF",
  "Adnami ApsIAB TCF",
  "adnanny.com SLUIAB TCF",
  "Adnuntius ASIAB TCF",
  "Adobe Advertising CloudIAB TCF",
  "Adobe Audience Manager, Adobe Experience PlatformIAB TCF",
  "AdomikIAB TCF",
  "Adpone SLIAB TCF",
  "adQueryIAB TCF",
  "AdQuiver Media SLIAB TCF",
  "ADRENALEADIAB TCF",
  "Adrino Mobile Sp. z o.o.IAB TCF",
  "adrule mobile GmbHIAB TCF",
  "Adserve.zone / Artworx ASIAB TCF",
  "ADSOCYIAB TCF",
  "Adsolutions BVIAB TCF",
  "AdsonicaIAB TCF",
  "AdSpirit GmbHIAB TCF",
  "adsquare GmbHIAB TCF",
  "Adssets ABIAB TCF",
  "ADSTOURS SASIAB TCF",
  "AdsWizz Inc.IAB TCF",
  "Adtarget Teknoloji A.S.IAB TCF",
  "Adtelligent Inc.IAB TCF",
  "AdTheorent, IncIAB TCF",
  "AdTiming Technology Company LimitedIAB TCF",
  "Adtriba GmbHIAB TCF",
  "ADUXIAB TCF",
  "advanced store GmbHIAB TCF",
  "ADventori SASIAB TCF",
  "Adventure MediaIAB TCF",
  "AdverlineIAB TCF",
  "Adverticum cPlc.IAB TCF",
  "Adverty AB (publ)IAB TCF",
  "AdViewIAB TCF",
  "Advisible ABIAB TCF",
  "ADWAYS SASIAB TCF",
  "adWMGIAB TCF",
  "Adxperience SASIAB TCF",
  "ADYOULIKE SAIAB TCF",
  "Adzymic Pte LtdIAB TCF",
  "Agate Systems LimitedIAB TCF",
  "agof - daily campaign factsIAB TCF",
  "agof studiesIAB TCF",
  "AiCreo S.r.l.IAB TCF",
  "AirGrid LTDIAB TCF",
  "Airnow Media LtdIAB TCF",
  "Allegro.plIAB TCF",
  "Alliance Gravity Data MediaIAB TCF",
  "Alphalyr SASIAB TCF",
  "Always-Computing SASIAB TCF",
  "Amazon AdvertisingIAB TCF",
  "Amnet GmbHIAB TCF",
  "Amobee Inc.IAB TCF",
  "ANINPRO-CREATIVE, S.L.IAB TCF",
  "Aniview LTDIAB TCF",
  "AntVoiceIAB TCF",
  "Anzu Virtual Reality LTDIAB TCF",
  "Apester LtdIAB TCF",
  "Appier PTE LtdIAB TCF",
  "appTV Ltd.IAB TCF",
  "Appush TechnologiesIAB TCF",
  "Aptivio IncIAB TCF",
  "Arbeitsgemeinschaft Media-AnalyseIAB TCF",
  "Arcspire LimitedIAB TCF",
  "AREIA (ADLOOP)IAB TCF",
  "ArkeeroIAB TCF",
  "ARKHEUSIAB TCF",
  "ARMIS SASIAB TCF",
  "Arpeely Ltd.IAB TCF",
  "Arrivalist CoIAB TCF",
  "ArtChaos s.r.o.IAB TCF",
  "Artefact Deutschland GmbHIAB TCF",
  "Ask LocalaIAB TCF",
  "AT Internet",
  "Audience NetworkIAB TCF",
  "Audience Solutions S.A.IAB TCF",
  "Audience Square",
  "Audience Trading Platform Ltd.IAB TCF",
  "AudienceProject ApsIAB TCF",
  "Audiencerate LTDIAB TCF",
  "AudienceRun corpIAB TCF",
  "Audiens S.r.l.IAB TCF",
  "Audienzz AGIAB TCF",
  "AuDigentIAB TCF",
  "audio content & control GmbHIAB TCF",
  "AUDIOMOB LTDIAB TCF",
  "Automattic AdsIAB TCF",
  "Avantis Video LtdIAB TCF",
  "Avocet Systems LimitedIAB TCF",
  "AWIN AGIAB TCF",
  "Axel Springer Teaser Ad GmbHIAB TCF",
  "Axiom Media ConnectIAB TCF",
  "Axonix LTDIAB TCF",
  "Azerion Holding B.V.IAB TCF",
  "B2B Media Group GmbHIAB TCF",
  "BababamIAB TCF",
  "Baidu USAIAB TCF",
  "bam! interactive marketing GmbH IAB TCF",
  "Bandsintown Amplified LLCIAB TCF",
  "Bannerflow ABIAB TCF",
  "Bannernow, Inc.IAB TCF",
  "Basis Global Technologies, Inc.IAB TCF",
  "BCOVERY SASIAB TCF",
  "Beachfront Media LLCIAB TCF",
  "Beaconspark LtdIAB TCF",
  "BeeswaxIO CorporationIAB TCF",
  "BEINTOO SPAIAB TCF",
  "belboon GmbHIAB TCF",
  "BeOpIAB TCF",
  "Bertelsmann Data Service GmbHIAB TCF",
  "Betgenius LtdIAB TCF",
  "Better Ads GmbHIAB TCF",
  "Between ExchangeIAB TCF",
  "BidBerry SRLIAB TCF",
  "BidMachine Inc.IAB TCF",
  "Bidmatic IncIAB TCF",
  "Bidstack LimitedIAB TCF",
  "BIDSWITCH GmbHIAB TCF",
  "Bidtellect, IncIAB TCF",
  "BidTheatre ABIAB TCF",
  "Bigabid Media ltdIAB TCF",
  "BILENDI SAIAB TCF",
  "Bit Q Holdings LimitedIAB TCF",
  "BLIINK SASIAB TCF",
  "Blingby LLCIAB TCF",
  "Blis Global LimitedIAB TCF",
  "Blockthrough, Inc.IAB TCF",
  "BlueIAB TCF",
  "Blue Billywig Group BVIAB TCF",
  "Blue Media Services LTDAIAB TCF",
  "Bmind a Sales Maker Company, S.L.IAB TCF",
  "Bombora Inc.IAB TCF",
  "Botman Networks (P) LtdIAB TCF",
  "Bounce Commerce GmbHIAB TCF",
  "Brand Advance LtdIAB TCF",
  "Brand Metrics Sweden ABIAB TCF",
  "Brandcom.inc ASIAB TCF",
  "Brandhouse/Subsero A/SIAB TCF",
  "Brave People Ltd.IAB TCF",
  "BRICKSIAB TCF",
  "Brid Video DOOIAB TCF",
  "Bring! Labs AGIAB TCF",
  "BritePool IncIAB TCF",
  "BrowsiIAB TCF",
  "BSmartData GmbHIAB TCF",
  "Bucksense IncIAB TCF",
  "BusinessClickIAB TCF",
  "BYTEDANCE PTE. LTD.IAB TCF",
  "C WIRE AGIAB TCF",
  "CAKE Software, Inc.IAB TCF",
  "Captify Technologies LimitedIAB TCF",
  "Caroda s.r.o.IAB TCF",
  "CASTOOLA D.O.O.IAB TCF",
  "Cavai AS &amp; UKIAB TCF",
  "Cazamba Serviços de Internet LtdaIAB TCF",
  "Cedato Technologies LtdIAB TCF",
  "Celtra, Inc.IAB TCF",
  "CentralNic Poland sp. z o.o.IAB TCF",
  "Channel Pilot Solutions GmbHIAB TCF",
  "ChannelSight IAB TCF",
  "CHEQ AI TECHNOLOGIESIAB TCF",
  "CIBLECLICIAB TCF",
  "Cint ABIAB TCF",
  "CITISERVI EUROPE, S.L.IAB TCF",
  "Claritas LLCIAB TCF",
  "Clever Advertising, Lda.IAB TCF",
  "CleverPush GmbHIAB TCF",
  "Click Tech LimitedIAB TCF",
  "Clinch Labs LTDIAB TCF",
  "Clipcentric, Inc.IAB TCF",
  "CliprIAB TCF",
  "Cloud Technologies S.A.IAB TCF",
  "Cluep LLCIAB TCF",
  "CMI Marketing, Inc. d/b/a CafeMediaIAB TCF",
  "Collective Europe Ltd.IAB TCF",
  "Comcast International France SASIAB TCF",
  "Commanders ActIAB TCF",
  "communicationAds GmbH &amp; Co. KGIAB TCF",
  "Comscore B.V.IAB TCF",
  "Confiant Inc.IAB TCF",
  "Connatix Native Exchange Inc.IAB TCF",
  "ConnectAd Realtime GmbHIAB TCF",
  "Consumable, Inc.IAB TCF",
  "Contact Impact GmbH/Axel Springer Teaser Ad GmbHIAB TCF",
  "Content IgniteIAB TCF",
  "Converge-DigitalIAB TCF",
  "Converto AGIAB TCF",
  "Convo InkIAB TCF",
  "Cookie Market LTDIAB TCF",
  "Covatic LtdIAB TCF",
  "Crimtan Holdings LimitedIAB TCF",
  "Criteo SAIAB TCF",
  "crossvertise GmbHIAB TCF",
  "Crowdy News LtdIAB TCF",
  "CuebiqIAB TCF",
  "CydersoftIAB TCF",
  "cynapsis interactive GmbHIAB TCF",
  "Czech Publisher Exchange z.s.p.o.IAB TCF",
  "Dable Inc.IAB TCF",
  "Dailymotion SAIAB TCF",
  "Dataseat LtdIAB TCF",
  "dataXtrade GmbHIAB TCF",
  "DeepIntent, Inc.IAB TCF",
  "DEFINE MEDIA GMBHIAB TCF",
  "Delidatax SLIAB TCF",
  "Delta Projects ABIAB TCF",
  "Demandbase, Inc.IAB TCF",
  "Dentsu Denmark A/SIAB TCF",
  "Dentsu Italia SpAIAB TCF",
  "Dentsu London LimitedIAB TCF",
  "Deutsche Post AGIAB TCF",
  "Dianomi PLCIAB TCF",
  "digidip GmbHIAB TCF",
  "Digiseg ApSIAB TCF",
  "Digital East GmbHIAB TCF",
  "Digital SquadIAB TCF",
  "digitalAudienceIAB TCF",
  "DIGITEKA TechnologiesIAB TCF",
  "Discover-Tech ltdIAB TCF",
  "DisqusIAB TCF",
  "district m inc.IAB TCF",
  "DistroScale, Inc.IAB TCF",
  "diva-e products IAB TCF",
  "DNA-I.COMIAB TCF",
  "Doceree UK LimitedIAB TCF",
  "DoubleVerify Inc.​IAB TCF",
  "dpa-infocom GmbHIAB TCF",
  "Duration Media, LLC.IAB TCF",
  "DynAdmicIAB TCF",
  "Dynamic 1001 GmbHIAB TCF",
  "Dynata LLCIAB TCF",
  "EASY Marketing GmbHIAB TCF",
  "EASYmedia GmbHIAB TCF",
  "eBay IncIAB TCF",
  "EDGE NPD Sp. z o.o.IAB TCF",
  "Effiliation / EffinityIAB TCF",
  "Ein Rad ABIAB TCF",
  "eMarketingSolutions, Online Marketing S.L.IAB TCF",
  "Emerse Sverige ABIAB TCF",
  "emetriq GmbHIAB TCF",
  "EMX Digital LLCIAB TCF",
  "EnsightenIAB TCF",
  "Epom Ltd.IAB TCF",
  "EpsilonIAB TCF",
  "ErmesIAB TCF",
  "EskimiIAB TCF",
  "ETARGET SEIAB TCF",
  "Eulerian TechnologiesIAB TCF",
  "Euvic 360e-com Sp. z o.o.IAB TCF",
  "Evolution Technologies Inc.IAB TCF",
  "Evorra LtdIAB TCF",
  "Exactag GmbHIAB TCF",
  "EXADSIAB TCF",
  "Exit Bee LimitedIAB TCF",
  "EXOCLICK, S.L.IAB TCF",
  "Experian LimitedIAB TCF",
  "Exponential Interactive, Inc d/b/a VDX.tvIAB TCF",
  "Extreme Reach, IncIAB TCF",
  "Eyeota Pte LtdIAB TCF",
  "Ezoic Inc.IAB TCF",
  "Facebook Core",
  "Facebook Pixel",
  "Factor Eleven GmbHIAB TCF",
  "Fandom, Inc.IAB TCF",
  "FeedAd GmbHIAB TCF",
  "Fidelity MediaIAB TCF",
  "Fido S.r.lIAB TCF",
  "Fiducia DLT LimitedIAB TCF",
  "Fifty Technology LimitedIAB TCF",
  "Firstlead GmbH (ADCELL)IAB TCF",
  "Flashtalking, Inc.IAB TCF",
  "Flexoffers.com, LLCIAB TCF",
  "Footballco Media LimitedIAB TCF",
  "Frameplay CorporationIAB TCF",
  "FRVR LimitedIAB TCF",
  "FUNKE Digital GmbHIAB TCF",
  "Fyber IAB TCF",
  "G+J Electronic Media Sales GmbHIAB TCF",
  "GADSMEIAB TCF",
  "Gamesight IncIAB TCF",
  "GamnedIAB TCF",
  "Gamoshi LtdIAB TCF",
  "GDMServices, Inc. d/b/a BidmindIAB TCF",
  "GeistM Technologies LTDIAB TCF",
  "Gemius SAIAB TCF",
  "GeoEdgeIAB TCF",
  "GeoProve LimitedIAB TCF",
  "GfK SEIAB TCF",
  "giosg.com OyIAB TCF",
  "Glimpse Protocol LimitedIAB TCF",
  "Global Media Group Services LimitedIAB TCF",
  "GlobalWebIndexIAB TCF",
  "glomex GmbHIAB TCF",
  "Go.pl sp. z o.o.IAB TCF",
  "Goldbach Group AGIAB TCF",
  "Golden BeesIAB TCF",
  "Good-Loop LtdIAB TCF",
  "GoodeedIAB TCF",
  "Goodway Group, Inc.IAB TCF",
  "Google Advertising ProductsIAB TCF",
  "Google Analytics",
  "Google Forms",
  "Google Maps",
  "Google Tag Manager",
  "Google Tag Manager",
  "GP One GmbHIAB TCF",
  "Grabit Interactive Media Inc dba KERV InterctiveIAB TCF",
  "GRAPHINIUMIAB TCF",
  "GroupM UK LimitedIAB TCF",
  "GumGum, Inc.IAB TCF",
  "HabuIAB TCF",
  "Haensel AMS GmbHIAB TCF",
  "HappydemicsIAB TCF",
  "Hashtag Labs Inc.IAB TCF",
  "Havas Media (Artemis Alliance S.L.U.)IAB TCF",
  "Hearts and Science München GmbHIAB TCF",
  "HEIMSPIEL Medien GmbH & Co KGIAB TCF",
  "Hillside (Sports) GP LimitedIAB TCF",
  "Hindsight Technology Solutions, Inc.IAB TCF",
  "Hivestack Inc.IAB TCF",
  "HUAWEI AdsIAB TCF",
  "HubvisorIAB TCF",
  "HUMANIAB TCF",
  "Hurra Communications GmbHIAB TCF",
  "Hybrid Adtech GmbHIAB TCF",
  "Hybrid Theory Global LtdIAB TCF",
  "Hyper LLCIAB TCF",
  "HyperTV Inc.IAB TCF",
  "I.R.V. D.O.O.IAB TCF",
  "ID Ward LtdIAB TCF",
  "ID5 Technology LtdIAB TCF",
  "ImonomyIAB TCF",
  "Impact Tech Inc.IAB TCF",
  "Impact&#43;IAB TCF",
  "Impactify SARLIAB TCF",
  "Improve DigitalIAB TCF",
  "INBEV BELGIUM SRLIAB TCF",
  "Index Exchange, Inc. IAB TCF",
  "INFINIA MOBILE S.L.IAB TCF",
  "Infogram",
  "Infolinks Media, LLCIAB TCF",
  "INFOnline GmbHIAB TCF",
  "Ingenious Technologies AGIAB TCF",
  "INIS sp. zo.o.IAB TCF",
  "InMobi Pte LtdIAB TCF",
  "INNITYIAB TCF",
  "Innovid LLCIAB TCF",
  "Inskin Media LTDIAB TCF",
  "Instagram",
  "Instagram",
  "Insticator, Inc.IAB TCF",
  "Instinctive, Inc.IAB TCF",
  "Instreamatic inc.IAB TCF",
  "InsurAds Technologies SA.IAB TCF",
  "Integral Ad Science, Inc.IAB TCF",
  "Intercept Interactive Inc. dba UndertoneIAB TCF",
  "Internet BillBoard a.s.IAB TCF",
  "INVIBES GROUPIAB TCF",
  "INVIDI technologies ABIAB TCF",
  "IP Deutschland GmbHIAB TCF",
  "IPONWEB GmbHIAB TCF",
  "iPROMIAB TCF",
  "iProspect GmbHIAB TCF",
  "IPSOS MORI UK LTDIAB TCF",
  "IQM CORPORATIONIAB TCF",
  "Italiaonline S.p.A.IAB TCF",
  "iTunes Link Maker",
  "IVO Media LtdIAB TCF",
  "Jaduda GmbHIAB TCF",
  "Jampp LTDIAB TCF",
  "Jellyfish FranceIAB TCF",
  "Jetpack Digital LLCIAB TCF",
  "Jivox CorporationIAB TCF",
  "JS Web ProductionIAB TCF",
  "jsdelivr.comIAB TCF",
  "Justpremium BVIAB TCF",
  "Justtag Sp. z o.o.IAB TCF",
  "Kairion GmbHIAB TCF",
  "Kairos FireIAB TCF",
  "Kameleoon SASIAB TCF",
  "Kargo Global Inc.IAB TCF",
  "KayzenIAB TCF",
  "Kertil Iberia SLIAB TCF",
  "Ketchup Adv SpaIAB TCF",
  "KeymanticsIAB TCF",
  "Kiosked LtdIAB TCF",
  "KnorexIAB TCF",
  "Kochava Inc.IAB TCF",
  "Konodrac S.L.IAB TCF",
  "Kubient Inc. IAB TCF",
  "KUPONA GmbHIAB TCF",
  "KwankoIAB TCF",
  "KÖNIGSTEINER digital GmbHIAB TCF",
  "lead alliance GmbHIAB TCF",
  "Leadoo Marketing Technologies LtdIAB TCF",
  "LeadsRx, Inc.IAB TCF",
  "LEESTEN INCIAB TCF",
  "Lifesight Pte. Ltd.IAB TCF",
  "LifeStreet CorporationIAB TCF",
  "Liftoff Mobile, Inc.IAB TCF",
  "LinkedIn Ireland Unlimited CompanyIAB TCF",
  "LiquidM Technology GmbHIAB TCF",
  "Listonic Sp. z o.o.IAB TCF",
  "Little Big Data sp. z o.o.IAB TCF",
  "LiveIntent Inc.IAB TCF",
  "LiveRampIAB TCF",
  "Livewrapped ABIAB TCF",
  "Localsensor B.V.IAB TCF",
  "Location Sciences AI Ltd.IAB TCF",
  "Longtail Ad Solutions, Inc dba JW PlayerIAB TCF",
  "LoopMe LimitedIAB TCF",
  "Lotame Solutions, incIAB TCF",
  "Lucid Holdings, LLCIAB TCF",
  "LucidityIAB TCF",
  "Luna Media Group LLCIAB TCF",
  "Lupon MediaIAB TCF",
  "M32 Connect IncIAB TCF",
  "MadingtonIAB TCF",
  "MADVERTISE MEDIAIAB TCF",
  "Magnite CTV, Inc.IAB TCF",
  "Magnite, Inc. IAB TCF",
  "Magnite, Inc. (Carbon AI Limited)IAB TCF",
  "Magnite, Inc. (Outstream)IAB TCF",
  "Maiden Marketing Pte LtdIAB TCF",
  "mainADV SrlIAB TCF",
  "MairDumont Netletix GmbH&amp;CoKGIAB TCF",
  "Make.org",
  "Marfeel Solutions, SLIAB TCF",
  "Marfeel Solutions, SL (Compass)IAB TCF",
  "Market Resource Partners LLCIAB TCF",
  "MARKETPERF CORPIAB TCF",
  "Mars Inc.IAB TCF",
  "Mars Media GroupIAB TCF",
  "Maximus Live LLCIAB TCF",
  "McCann Discipline LTDIAB TCF",
  "MEDIA FORCE COMMUNICATIONS (2007) LTDIAB TCF",
  "Media SquareIAB TCF",
  "Media.net Advertising FZ-LLCIAB TCF",
  "Media16 ltdIAB TCF",
  "Mediakeys PlatformIAB TCF",
  "MediaMath, Inc.IAB TCF",
  "MEDIAMETRIEIAB TCF",
  "mediarithmics SASIAB TCF",
  "Mediascore mbHIAB TCF",
  "Mediasmart Mobile S.L.IAB TCF",
  "Mediavine, Inc.IAB TCF",
  "Meetrics GmbHIAB TCF",
  "Meson Mediation LLCIAB TCF",
  "MGID Inc.IAB TCF",
  "Miaozhen Information Technology Co. LtdIAB TCF",
  "Microsoft AdvertisingIAB TCF",
  "Mindlytix SASIAB TCF",
  "MindTake Research GmbHIAB TCF",
  "Mintegral international limitedIAB TCF",
  "MiQ Digital LtdIAB TCF",
  "Mirando GmbH &amp; Co KGIAB TCF",
  "MISSENAIAB TCF",
  "MNTNIAB TCF",
  "mobalo GmbHIAB TCF",
  "Mobfox US LLCIAB TCF",
  "Mobile Professionals BV / Sage&amp;Archer BVIAB TCF",
  "MobileFuse LLCIAB TCF",
  "Mobilewalla, Inc.IAB TCF",
  "Mobility-Ads GmbHIAB TCF",
  "Mobkoi LtdIAB TCF",
  "MobsuccessIAB TCF",
  "Moloco, Inc.IAB TCF",
  "Monet Engine IncIAB TCF",
  "MOVIads Sp. z o.o. Sp. k.IAB TCF",
  "MPX GmbHIAB TCF",
  "MUSO TNT LIMITEDIAB TCF",
  "MyTrafficIAB TCF",
  "N.Rich Technologies Inc.IAB TCF",
  "NAG SAIAB TCF",
  "Nano Interactive Group Ltd.IAB TCF",
  "Natexo SpainIAB TCF",
  "Nativery SrlIAB TCF",
  "Nativo, Inc.IAB TCF",
  "Natív Hirdetés Korlátolt Felelősségű TársaságIAB TCF",
  "NC Audience Exchange, LLC (NewsIQ)IAB TCF",
  "Near IntelligenceIAB TCF",
  "Near Intelligence Pte. Ltd.IAB TCF",
  "Neodata Group srlIAB TCF",
  "NEORY GmbHIAB TCF",
  "NETILUM (AFFILAE)IAB TCF",
  "Netpoint Media GmbHIAB TCF",
  "NetSuccess, s.r.o.IAB TCF",
  "netzeffekt GmbHIAB TCF",
  "NEURAL.ONEIAB TCF",
  "Neustar, Inc., a TransUnion companyIAB TCF",
  "Newsroom AI LtdIAB TCF",
  "NEXDIAB TCF",
  "Next MediaIAB TCF",
  "Next Media SRLIAB TCF",
  "Next Millennium Media INCIAB TCF",
  "NextRoll, Inc.IAB TCF",
  "Nexx360IAB TCF",
  "Nielsen International SAIAB TCF",
  "Nielsen Marketing CloudIAB TCF",
  "Njuice ABIAB TCF",
  "NoBid, Inc.IAB TCF",
  "Norstat ASIAB TCF",
  "Noster Finance S.L.IAB TCF",
  "NotifyIAB TCF",
  "Novatiq limited IAB TCF",
  "NOW GmbHIAB TCF",
  "Nubo LTDIAB TCF",
  "NumberEight Technologies LtdIAB TCF",
  "Objective Partners BVIAB TCF",
  "Octave IP LimitedIAB TCF",
  "Offerista Group GmbHIAB TCF",
  "Ogury Ltd.IAB TCF",
  "On Device Research LimitedIAB TCF",
  "OnAudience LtdIAB TCF",
  "One Planet OnlyIAB TCF",
  "One Tech Group GmbHIAB TCF",
  "ONEcountIAB TCF",
  "OneFootball GmbHIAB TCF",
  "Onesoon Limited t/a AdalyserIAB TCF",
  "OneTag LimitedIAB TCF",
  "Onfocus (Adagio)IAB TCF",
  "Online Advertising Network Sp. z o.o.IAB TCF",
  "Online Media Solutions LTD (BDA: Brightcom)IAB TCF",
  "Online SolutionIAB TCF",
  "onlineumfragen.com GmbHIAB TCF",
  "Onnetwork Sp. z o.o.IAB TCF",
  "OnProspects LtdIAB TCF",
  "Open Web Technologies LtdIAB TCF",
  "OpenXIAB TCF",
  "Opera Software Ireland LimitedIAB TCF",
  "Opinary GmbHIAB TCF",
  "Opt Out Advertising B.V. IAB TCF",
  "Opti Digital SASIAB TCF",
  "optimise-it GmbHIAB TCF",
  "Optomaton UGIAB TCF",
  "Oracle AdvertisingIAB TCF",
  "Oracle Data Cloud - MoatIAB TCF",
  "Orion SemanticsIAB TCF",
  "Otto (GmbH &amp; Co KG)IAB TCF",
  "Outbrain UK LtdIAB TCF",
  "PaperG, Inc. dba Thunder IndustriesIAB TCF",
  "Parrable, Inc.IAB TCF",
  "Passendo ApsIAB TCF",
  "Paypersale.ruIAB TCF",
  "Pelmorex Corp.IAB TCF",
  "Performax.cz, s.r.o.IAB TCF",
  "Permodo GmbHIAB TCF",
  "Permutive LimitedIAB TCF",
  "Permutive Technologies, Inc.IAB TCF",
  "Persona.lyIAB TCF",
  "Pexi B.V.IAB TCF",
  "PIA Advertising GmbHIAB TCF",
  "Piano Software Inc.IAB TCF",
  "Pinpoll GmbHIAB TCF",
  "Pixalate, Inc.IAB TCF",
  "PixFuture Media Inc.IAB TCF",
  "PIXIMEDIAIAB TCF",
  "Placense LtdIAB TCF",
  "Platform161 B.V.IAB TCF",
  "Playad Media Group ABIAB TCF",
  "Playbuzz Ltd (aka EX.CO)IAB TCF",
  "PLAYGROUND XYZ EMEA LTDIAB TCF",
  "Playhill LimitedIAB TCF",
  "Playrcart LimitedIAB TCF",
  "Playwire LLCIAB TCF",
  "plista GmbHIAB TCF",
  "PML Innovative MediaIAB TCF",
  "Polar Mobile Group Inc.IAB TCF",
  "PowerLinks Media LimitedIAB TCF",
  "PowerspaceIAB TCF",
  "Prebid.orgIAB TCF",
  "PRECISO SRLIAB TCF",
  "PredicioIAB TCF",
  "PREQUEL INTERNET TRADING LTD. IAB TCF",
  "Pressboard Media IncIAB TCF",
  "Programatica de publicidad S.L.IAB TCF",
  "Project Agora LtdIAB TCF",
  "ProSiebenSat.1 Digital Data GmbHIAB TCF",
  "Protected Media LTDIAB TCF",
  "Proxi.cloud sp. z o.o.IAB TCF",
  "PROXISTOREIAB TCF",
  "Pub Stack",
  "Pubfinity LLCIAB TCF",
  "Publica LLCIAB TCF",
  "Publicis Media GmbHIAB TCF",
  "Publisher First, Inc.IAB TCF",
  "PubMatic, IncIAB TCF",
  "PubWise, LLLPIAB TCF",
  "Pulse Innovations LimitedIAB TCF",
  "PulsePoint, Inc.IAB TCF",
  "Pure Local Media GmbHIAB TCF",
  "Qriously LtdIAB TCF",
  "Quadrant Global Pte LtdIAB TCF",
  "Qualifio",
  "Quality Media Network GmbHIAB TCF",
  "QuantcastIAB TCF",
  "QuantumCast digital GmbHIAB TCF",
  "Quantyoo GmbH &amp; Co. KGIAB TCF",
  "QUARTER MEDIA GmbHIAB TCF",
  "Query Click LimitedIAB TCF",
  "Questpass Sp. z o.o.IAB TCF",
  "Radio France Kirby",
  "Radio Net Media LimitedIAB TCF",
  "Rakuten Marketing LLCIAB TCF",
  "Rapid Performance GmbHIAB TCF",
  "RDandX Group DMCCIAB TCF",
  "Reach Media GmbHIAB TCF",
  "Readpeak OyIAB TCF",
  "Realeyes OUIAB TCF",
  "RealyticsIAB TCF",
  "Rebold Marketing & Communication SLUIAB TCF",
  "Redbranch, Inc dba FraudlogixIAB TCF",
  "Reignn Platform LtdIAB TCF",
  "Relay42 Netherlands B.V.IAB TCF",
  "Relevant Digital OyIAB TCF",
  "REMAILMEIAB TCF",
  "remerge GmbHIAB TCF",
  "Remixd Media, Inc.IAB TCF",
  "Reppublika Data Analytics and Technologies GmbHIAB TCF",
  "Research and Analysis of Media in Sweden ABIAB TCF",
  "Resono B.V.IAB TCF",
  "respondi AGIAB TCF",
  "retailAds GmbH & Co. KGIAB TCF",
  "Revcontent, LLCIAB TCF",
  "Reveal Mobile IncIAB TCF",
  "RevJetIAB TCF",
  "RevXIAB TCF",
  "Rezonence LimitedIAB TCF",
  "Rich Audience Technologies SLIAB TCF",
  "Ringier Axel Springer Polska sp. z o.o.IAB TCF",
  "RMSi Radio Marketing Service interactive GmbHIAB TCF",
  "Rockabox Media Ltd t/a ScootaIAB TCF",
  "Rockerbox, IncIAB TCF",
  "Roku Advertising ServicesIAB TCF",
  "Roq.ad Inc.IAB TCF",
  "RTB House S.A.IAB TCF",
  "Salesforce.com, Inc.IAB TCF",
  "Salestring ApSIAB TCF",
  "Samba TV UK LimitedIAB TCF",
  "Samba TV, Inc.IAB TCF",
  "Samoukale Enterprises Limited dba ADEXIAB TCF",
  "Samsung AdsIAB TCF",
  "Sayollo Media LTDIAB TCF",
  "ScaleMonk Inc.IAB TCF",
  "Scene Stealer LimitedIAB TCF",
  "Schober Information Group Deutschland GmbHIAB TCF",
  "Score Media Group GmbH & Co. KGIAB TCF",
  "Scribd",
  "Seeding Alliance GmbHIAB TCF",
  "Seedtag Advertising S.LIAB TCF",
  "Seenthis ABIAB TCF",
  "SelectMedia International LTDIAB TCF",
  "Semasio GmbHIAB TCF",
  "Seven Technologies S.L.IAB TCF",
  "Seznam.cz, a.s.IAB TCF",
  "ShareThis, IncIAB TCF",
  "Sharethrough, IncIAB TCF",
  "SheMedia, LLCIAB TCF",
  "ShinyStat S.p.a.IAB TCF",
  "Shopalyst IncIAB TCF",
  "Showheroes SEIAB TCF",
  "ShowHeroes SRLIAB TCF",
  "Sift Media, IncIAB TCF",
  "Signal Digital Inc.IAB TCF",
  "Silverbullet Data Services GroupIAB TCF",
  "Simplifi Holdings IncIAB TCF",
  "SINGLESPOT SAS IAB TCF",
  "SirdataIAB TCF",
  "Sirdata CookielessIAB TCF",
  "SITU8ED SAIAB TCF",
  "Sizmek by AmazonIAB TCF",
  "SkazeIAB TCF",
  "Skimbit LtdIAB TCF",
  "SkoiyIAB TCF",
  "Smaato, Inc.IAB TCF",
  "SMADEX, S.L.U.IAB TCF",
  "Smart AdserverIAB TCF",
  "Smart TraffikIAB TCF",
  "smartclip Europe GmbHIAB TCF",
  "Smartclip Hispania S.L.IAB TCF",
  "SmartFrame TechnologiesIAB TCF",
  "SMARTLINE SYSTEMSIAB TCF",
  "Smartme AnalyticsIAB TCF",
  "Smartology LimitedIAB TCF",
  "SMARTSTREAM.TV GmbHIAB TCF",
  "SmartyAds Inc.IAB TCF",
  "Smile Wanted GroupIAB TCF",
  "Snapsort Inc., operating as SortableIAB TCF",
  "SNAPUPP TECHNOLOGIES SLIAB TCF",
  "Snigel Web Services LimitedIAB TCF",
  "socoto gmbh &amp; co. kgIAB TCF",
  "SoD ScreenOnDemand GmbHIAB TCF",
  "Sojern, Inc.IAB TCF",
  "SolocalIAB TCF",
  "Solution couponsIAB TCF",
  "Somplo LtdIAB TCF",
  "SOMQUERY SOMTAG - (SevenOne Media)IAB TCF",
  "Sonic Odeeo ltdIAB TCF",
  "Sonobi, IncIAB TCF",
  "SoundCastIAB TCF",
  "Soundcloud",
  "Sourcepoint Technologies, Inc. (non-CMP)IAB TCF",
  "Sovrn Holdings IncIAB TCF",
  "Sparklit Networks IncIAB TCF",
  "SPEAKOL DMCCIAB TCF",
  "SpearAd GmbHIAB TCF",
  "SPICY MOBILE Sp z o.o. Sp.k.IAB TCF",
  "Spoods GmbHIAB TCF",
  "SPORTORITY UK LTDIAB TCF",
  "Sportradar AGIAB TCF",
  "SpotadIAB TCF",
  "SpotibleIAB TCF",
  "Spotify Embed",
  "SpotX, IncIAB TCF",
  "SpringServe, LLCIAB TCF",
  "Sqreem Technologies Private LimitedIAB TCF",
  "Squared SASIAB TCF",
  "StackAdaptIAB TCF",
  "Stream Eye OODIAB TCF",
  "Strossle International ABIAB TCF",
  "Ströer Digital Media GmbHIAB TCF",
  "Ströer SSP GmbH (DSP)IAB TCF",
  "Ströer SSP GmbH (SSP)IAB TCF",
  "STUDIO GONG GmbH & Co. Studiobetriebs KGIAB TCF",
  "Sub2 Technologies LtdIAB TCF",
  "SublimeIAB TCF",
  "SublimeSkinz - AdledgeIAB TCF",
  "SunMedia IAB TCF",
  "SYNCIAB TCF",
  "Synkd Ltd.IAB TCF",
  "TabMo SASIAB TCF",
  "Taboola Europe LimitedIAB TCF",
  "TACTIC™ Real-Time Marketing ASIAB TCF",
  "Tangoo S.R.L.IAB TCF",
  "Tapad, Inc.IAB TCF",
  "Tapjoy, Inc.IAB TCF",
  "TAPTAP Digital SLIAB TCF",
  "Targetspot Belgium SPRLIAB TCF",
  "TargetVideo GmbHIAB TCF",
  "Teads France SASIAB TCF",
  "TeavaroIAB TCF",
  "Telecoming S.A.IAB TCF",
  "Telefonica Audiovisual Digital S.LIAB TCF",
  "Telefonica de España S.A.UIAB TCF",
  "Telefonica Investigación y Desarrollo S.A.UIAB TCF",
  "Telefonica Moviles España S.A.UIAB TCF",
  "Terminus Software Inc.IAB TCF",
  "Teroa S.A.IAB TCF",
  "TF1 PUBLICITEIAB TCF",
  "The Kantar Group LimitedIAB TCF",
  "THE LINEA 1 MKT SLIAB TCF",
  "The MediaGrid Inc.IAB TCF",
  "THE NEWCO S.R.L.IAB TCF",
  "The Ozone Project LimitedIAB TCF",
  "The Procter & Gamble CompanyIAB TCF",
  "The Reach Group GmbHIAB TCF",
  "The Trade DeskIAB TCF",
  "ThreediumIAB TCF",
  "Timehop, Inc.IAB TCF",
  "TIMEONE PERFORMANCEIAB TCF",
  "TMT Digital IncIAB TCF",
  "TOPBOX Inc.IAB TCF",
  "Traffective GmbHIAB TCF",
  "travel audience GmbHIAB TCF",
  "Tredia Solutions SLIAB TCF",
  "TreSensa Technologies, Inc.IAB TCF",
  "Tri-table Sp. z o.o.IAB TCF",
  "Triapodi Ltd.IAB TCF",
  "Trinity AudioIAB TCF",
  "Triple13 LtdIAB TCF",
  "TripleLift, Inc.IAB TCF",
  "Triton Digital Canada Inc.IAB TCF",
  "TrueData Solutions, Inc.IAB TCF",
  "Truvid Inc.IAB TCF",
  "Turk TelekomIAB TCF",
  "TV Scientific IncIAB TCF",
  "TV SQUARED LIMITEDIAB TCF",
  "twiago GmbHIAB TCF",
  "Twitter",
  "Twitter",
  "TX Group AGIAB TCF",
  "TypeA Holdings LtdIAB TCF",
  "UAB MeazyIAB TCF",
  "UberMedia, Inc.IAB TCF",
  "ucfunnel Co., Ltd.IAB TCF",
  "umlaut communication gmbhIAB TCF",
  "Unacast Inc.IAB TCF",
  "Unblockia SLIAB TCF",
  "Underdog Media LLC IAB TCF",
  "Unicredit BankAustria AGIAB TCF",
  "UniCredit S.p.A.IAB TCF",
  "Unilever Polska sp. z o.o.IAB TCF",
  "United Internet Media GmbHIAB TCF",
  "Unmatched Solutions LimitedIAB TCF",
  "Unruly Group LLCIAB TCF",
  "Unruly Group LtdIAB TCF",
  "uppr GmbHIAB TCF",
  "Upwave Inc.IAB TCF",
  "usemax advertisement (Emego GmbH)IAB TCF",
  "Ve Global UK LimitedIAB TCF",
  "VECTAURYIAB TCF",
  "Velocity Made Good LLCIAB TCF",
  "Venatus Media LimitedIAB TCF",
  "Verasity LimitedIAB TCF",
  "Verve Group Europe GmbHIAB TCF",
  "VEXPRO TECHNOLOGIES LTDIAB TCF",
  "VGI CTV, IncIAB TCF",
  "VIADS ADVERTISING S.L.IAB TCF",
  "Viafoura Inc.IAB TCF",
  "Vibrant Media LimitedIAB TCF",
  "Vidazoo LtdIAB TCF",
  "Vidcrunch LLCIAB TCF",
  "video intelligence AGIAB TCF",
  "Videobyte IncIAB TCF",
  "Vidoomy Media SLIAB TCF",
  "Viewdeos 2015 LTDIAB TCF",
  "ViewPayIAB TCF",
  "Vimeo Inc.",
  "Visarity Technologies GmbHIAB TCF",
  "vitrado GmbHIAB TCF",
  "ViznetIAB TCF",
  "VLYBY Digital GmbHIAB TCF",
  "VOLPI IMMOBILIERIAB TCF",
  "VRTCAL Markets IncIAB TCF",
  "VUUKLE DMCCIAB TCF",
  "Vyde Ltd.IAB TCF",
  "Wagawin GmbHIAB TCF",
  "WAM Group Ltd, t/a AdmixIAB TCF",
  "Watch Fantom Inc. AKA CatapultXIAB TCF",
  "WebAds B.VIAB TCF",
  "WebMediaIAB TCF",
  "WeboramaIAB TCF",
  "Welect GmbHIAB TCF",
  "WEMASS MEDIA AUDIENCE SAFE SOLUTIONS, S.L. IAB TCF",
  "wetter.com GmbHIAB TCF",
  "WhatRocks Inc. IAB TCF",
  "Widespace ABIAB TCF",
  "WizalyIAB TCF",
  "Wunderkind CorporationIAB TCF",
  "XAD spoteffects GmbHIAB TCF",
  "xAd, Inc. dba GroundTruthIAB TCF",
  "Xandr, Inc.IAB TCF",
  "XChange by SFBX®IAB TCF",
  "xpln.ai SASIAB TCF",
  "Yahoo EMEA LimitedIAB TCF",
  "YandexIAB TCF",
  "Yieldlab (Virtual Minds GmbH)IAB TCF",
  "YieldLift LLCIAB TCF",
  "Yieldlove GmbHIAB TCF",
  "Yieldmo, Inc.IAB TCF",
  "YOC AGIAB TCF",
  "YouGovIAB TCF",
  "Youtube",
  "ZAM Network LLC dba FanbyteIAB TCF",
  "ZBO MediaIAB TCF",
  "ZEDO Inc.IAB TCF",
  "Zemanta Inc.IAB TCF",
  "zeotap GmbHIAB TCF",
  "Zeta GlobalIAB TCF",
  "Ziff Davis LLCIAB TCF",
  "zillian saIAB TCF",
  "Zoomd Ltd.IAB TCF"
]