[
  "1020, Inc. dba Placecast and Ericsson EmodoIAB TCF",
  "1plusX AGIAB TCF",
  "2KDirect, Inc. (dba iPromote)IAB TCF",
  "33AcrossIAB TCF",
  "360e-com Sp. z o.o.IAB TCF",
  "3Q nexx GmbHIAB TCF",
  "42 Ads GmbHIAB TCF",
  "6Sense Insights, Inc.IAB TCF",
  "7Hops.com Inc. (ZergNet)IAB TCF",
  ": TappxIAB TCF",
  "A Million Ads LtdIAB TCF",
  "A.MobIAB TCF",
  "AAX LLCIAB TCF",
  "Ab tasty",
  "Accorp Sp. z o.o.IAB TCF",
  "Active Agent (ADITION technologies AG)IAB TCF",
  "AcuityAds Inc.IAB TCF",
  "AcxiomIAB TCF",
  "Ad Alliance GmbHIAB TCF",
  "ad6mediaIAB TCF",
  "Adacado Technologies Inc. (DBA Adacado)IAB TCF",
  "adality GmbHIAB TCF",
  "ADARA MEDIA UNLIMITEDIAB TCF",
  "adbility media GmbHIAB TCF",
  "ADCELL | Firstlead GmbHIAB TCF",
  "AdClear GmbHIAB TCF",
  "AdColony, Inc.IAB TCF",
  "AddApptr GmbHIAB TCF",
  "AdDefend GmbHIAB TCF",
  "AddrelevanceIAB TCF",
  "Adevinta Spain S.L.U.IAB TCF",
  "AdformIAB TCF",
  "AdGear Technologies, Inc.IAB TCF",
  "AdheseIAB TCF",
  "adhood.comIAB TCF",
  "AdikteevIAB TCF",
  "ADITION technologies AGIAB TCF",
  "Adjust GmbHIAB TCF",
  "Adkernel LLCIAB TCF",
  "Adloox SAIAB TCF",
  "Adludio Ltd.IAB TCF",
  "ADMAN - Phaistos Networks, S.A.IAB TCF",
  "ADman Interactive SLUIAB TCF",
  "adMarketplace, Inc.IAB TCF",
  "AdMaxim Inc.IAB TCF",
  "Admedo Technology LtdIAB TCF",
  "admetrics GmbHIAB TCF",
  "Admixer EU GmbHIAB TCF",
  "Admo.tv (Clickon)IAB TCF",
  "Adnami ApsIAB TCF",
  "adnanny.com SLUIAB TCF",
  "Adnuntius ASIAB TCF",
  "Adobe Advertising CloudIAB TCF",
  "Adobe Audience Manager, Adobe Experience PlatformIAB TCF",
  "Adpone SLIAB TCF",
  "AdQuiver Media SLIAB TCF",
  "ADRENALEADIAB TCF",
  "adrule mobile GmbHIAB TCF",
  "Adserve.zone / Artworx ASIAB TCF",
  "Adsolutions BVIAB TCF",
  "AdSpirit GmbHIAB TCF",
  "adsquare GmbHIAB TCF",
  "Adssets ABIAB TCF",
  "AdsWizz Inc.IAB TCF",
  "Adtarget Medya A.S.IAB TCF",
  "Adtelligent Inc.IAB TCF",
  "AdTheorent, IncIAB TCF",
  "Adtriba GmbHIAB TCF",
  "Adtube ASIAB TCF",
  "ADUXIAB TCF",
  "advanced store GmbHIAB TCF",
  "ADventori SASIAB TCF",
  "AdverlineIAB TCF",
  "Adverticum cPlc.IAB TCF",
  "Adverty AB (publ)IAB TCF",
  "Advisible ABIAB TCF",
  "ADWAYS SASIAB TCF",
  "Adxperience SASIAB TCF",
  "ADYOULIKE SAIAB TCF",
  "Adzymic Pte LtdIAB TCF",
  "AerServ LLCIAB TCF",
  "Affle InternationalIAB TCF",
  "agof - daily campaign factsIAB TCF",
  "agof studiesIAB TCF",
  "AirGrid LTDIAB TCF",
  "Alliance Gravity Data MediaIAB TCF",
  "Amazon AdvertisingIAB TCF",
  "Amobee Inc.IAB TCF",
  "ANINPRO-CREATIVE, S.L.IAB TCF",
  "Aniview LTDIAB TCF",
  "AntVoiceIAB TCF",
  "Anzu Virtual Reality LTDIAB TCF",
  "Apester LtdIAB TCF",
  "Appier PTE LtdIAB TCF",
  "Arcspire LimitedIAB TCF",
  "ArkeeroIAB TCF",
  "ARMIS SASIAB TCF",
  "Arrivalist Co.IAB TCF",
  "Artefact Deutschland GmbHIAB TCF",
  "AT Internet",
  "Audience Square",
  "Audience Trading Platform Ltd.IAB TCF",
  "AudienceProject ApsIAB TCF",
  "Audiencerate LTDIAB TCF",
  "Audiens S.r.l.IAB TCF",
  "Audienzz AGIAB TCF",
  "AuDigentIAB TCF",
  "audio content &amp; control GmbHIAB TCF",
  "AUDIOMOB LTDIAB TCF",
  "Avid Media LtdIAB TCF",
  "Avocet Systems LimitedIAB TCF",
  "AWIN AGIAB TCF",
  "Axel Springer Teaser Ad GmbHIAB TCF",
  "Axonix LTDIAB TCF",
  "Azerion Holding B.V.IAB TCF",
  "B2B Media Group EMEAIAB TCF",
  "bam! interactive marketing GmbH IAB TCF",
  "Bandsintown Amplified LLCIAB TCF",
  "Bannerflow ABIAB TCF",
  "Bannernow, Inc.IAB TCF",
  "Beachfront Media LLCIAB TCF",
  "Beaconspark LtdIAB TCF",
  "BeeswaxIO CorporationIAB TCF",
  "BEINTOO SPAIAB TCF",
  "BeOpIAB TCF",
  "Betgenius LtdIAB TCF",
  "Better Banners A/SIAB TCF",
  "Between ExchangeIAB TCF",
  "BidBerry SRLIAB TCF",
  "BidMachine Inc.IAB TCF",
  "Bidstack LimitedIAB TCF",
  "BIDSWITCH GmbHIAB TCF",
  "Bidtellect, IncIAB TCF",
  "BidTheatre ABIAB TCF",
  "Bigabid Media ltdIAB TCF",
  "BILENDI SAIAB TCF",
  "Bit Q Holdings LimitedIAB TCF",
  "BLIINK SASIAB TCF",
  "Blingby LLCIAB TCF",
  "Blis Media LimitedIAB TCF",
  "Blockthrough, Inc.IAB TCF",
  "BlueIAB TCF",
  "Blue Billywig BVIAB TCF",
  "Bmind a Sales Maker Company, S.L.IAB TCF",
  "Bounce Exchange, IncIAB TCF",
  "Brand Advance LimitedIAB TCF",
  "Brand Metrics Sweden ABIAB TCF",
  "Brave People Ltd.IAB TCF",
  "Bring! Labs AGIAB TCF",
  "BritePool IncIAB TCF",
  "BrowsiIAB TCF",
  "BSmartData GmbHIAB TCF",
  "Bucksense IncIAB TCF",
  "BusinessClickIAB TCF",
  "CAKE Software, Inc.IAB TCF",
  "Captify Technologies LimitedIAB TCF",
  "Carbon (AI) LimitedIAB TCF",
  "Cavai AS & UK IAB TCF",
  "Cazamba Serviços de Internet LtdaIAB TCF",
  "Cedato Technologies LtdIAB TCF",
  "Celtra, Inc.IAB TCF",
  "CentralNic Poland sp. z o.o.IAB TCF",
  "Channel Pilot Solutions GmbHIAB TCF",
  "ChannelSight IAB TCF",
  "Cint ABIAB TCF",
  "Clever Advertising, Lda.IAB TCF",
  "Click Tech LimitedIAB TCF",
  "Clinch Labs LTDIAB TCF",
  "Clipcentric, Inc.IAB TCF",
  "Cloud Technologies S.A.IAB TCF",
  "Collective Europe Ltd.IAB TCF",
  "Comcast International France SASIAB TCF",
  "Commanders ActIAB TCF",
  "communicationAds GmbH &amp; Co. KGIAB TCF",
  "comScore, Inc.IAB TCF",
  "Connatix Native Exchange Inc.IAB TCF",
  "ConnectAd Realtime GmbHIAB TCF",
  "Consumable, Inc.IAB TCF",
  "Contact Impact GmbHIAB TCF",
  "Converge-DigitalIAB TCF",
  "Converto AGIAB TCF",
  "Cookie Market LTDIAB TCF",
  "Crimtan Holdings LimitedIAB TCF",
  "Criteo SAIAB TCF",
  "Crowdy News LtdIAB TCF",
  "CuebiqIAB TCF",
  "Cxense ASAIAB TCF",
  "cynapsis interactive GmbHIAB TCF",
  "Czech Publisher Exchange z.s.p.o.IAB TCF",
  "Dailymotion SAIAB TCF",
  "Dataseat LtdIAB TCF",
  "DAZN Media Services LimitedIAB TCF",
  "DeepIntent, Inc.IAB TCF",
  "DEFINE MEDIA GMBHIAB TCF",
  "Delidatax SLIAB TCF",
  "Delta Projects ABIAB TCF",
  "Demandbase, Inc.IAB TCF",
  "Dentsu Aegis Network Italia SpAIAB TCF",
  "Deutsche Post AGIAB TCF",
  "digidip GmbHIAB TCF",
  "Digiseg ApSIAB TCF",
  "Digital East GmbHIAB TCF",
  "digitalAudienceIAB TCF",
  "DIGITEKA TechnologiesIAB TCF",
  "Discover-Tech ltdIAB TCF",
  "DisqusIAB TCF",
  "district m inc.IAB TCF",
  "DistroScale, Inc.IAB TCF",
  "diva-e products IAB TCF",
  "DNA-I.COMIAB TCF",
  "DoubleVerify Inc.​IAB TCF",
  "Dugout Limited IAB TCF",
  "Duration Media, LLC.IAB TCF",
  "DynAdmicIAB TCF",
  "Dynamic 1001 GmbHIAB TCF",
  "Dynata LLCIAB TCF",
  "EASY Marketing GmbHIAB TCF",
  "EASYmedia GmbHIAB TCF",
  "EDGE NPD Sp. z o.o.IAB TCF",
  "Effiliation / EffinityIAB TCF",
  "eMarketingSolutions, Online Marketing S.L.IAB TCF",
  "Emerse Sverige ABIAB TCF",
  "emetriq GmbHIAB TCF",
  "EMX Digital LLCIAB TCF",
  "Epom Ltd.IAB TCF",
  "EpsilonIAB TCF",
  "Eulerian TechnologiesIAB TCF",
  "Exactag GmbHIAB TCF",
  "Experian LimitedIAB TCF",
  "Exponential Interactive, Inc d/b/a VDX.tvIAB TCF",
  "Eyeota Pte LtdIAB TCF",
  "Ezoic Inc.IAB TCF",
  "Facebook Pixel",
  "Factor Eleven GmbHIAB TCF",
  "Fandom, Inc.IAB TCF",
  "FeedAd GmbHIAB TCF",
  "Fidelity MediaIAB TCF",
  "Fido S.r.lIAB TCF",
  "Fifty Technology LimitedIAB TCF",
  "Flashtalking, Inc.IAB TCF",
  "Flexoffers.com, LLCIAB TCF",
  "Free Stream Media Corp. dba Samba TVIAB TCF",
  "Fusio by S4MIAB TCF",
  "Fyber IAB TCF",
  "G&#43;J Electronic Media Sales GmbHIAB TCF",
  "GADSMEIAB TCF",
  "GamnedIAB TCF",
  "Gamoshi LtdIAB TCF",
  "GDMServices, Inc. d/b/a FiksuDSPIAB TCF",
  "GeistM Technologies LTDIAB TCF",
  "Gemius SAIAB TCF",
  "GeoEdgeIAB TCF",
  "GfK SEIAB TCF",
  "Global Media &amp; Entertainment LimitedIAB TCF",
  "GlobalWebIndexIAB TCF",
  "Go.pl sp. z o.o.IAB TCF",
  "Goldbach Group AGIAB TCF",
  "Golden BeesIAB TCF",
  "Good-Loop LtdIAB TCF",
  "Goodway Group, Inc.IAB TCF",
  "Google Advertising ProductsIAB TCF",
  "Google Analytics",
  "GP One GmbHIAB TCF",
  "Grabit Interactive Media Inc dba KERV InterctiveIAB TCF",
  "GRAPHINIUMIAB TCF",
  "GroupM UK LimitedIAB TCF",
  "GumGum, Inc.IAB TCF",
  "Haensel AMS GmbHIAB TCF",
  "HappydemicsIAB TCF",
  "HEIMSPIEL Medien GmbH &amp; Co KGIAB TCF",
  "Hivestack Inc.IAB TCF",
  "HUAWEI AdsIAB TCF",
  "Hybrid Adtech GmbHIAB TCF",
  "Hybrid TheoryIAB TCF",
  "HyperTV Inc.IAB TCF",
  "ID5 Technology SASIAB TCF",
  "Impact Tech Inc.IAB TCF",
  "Impact+IAB TCF",
  "Impactify IAB TCF",
  "Improve Digital BVIAB TCF",
  "Index Exchange, Inc. IAB TCF",
  "INFINIA MOBILE S.L.IAB TCF",
  "INFOnline GmbHIAB TCF",
  "Ingenious Technologies AGIAB TCF",
  "InMobi Pte LtdIAB TCF",
  "INNITYIAB TCF",
  "Innovid Inc.IAB TCF",
  "Inskin Media LTDIAB TCF",
  "Inspired Mobile LimitedIAB TCF",
  "Insticator, Inc.IAB TCF",
  "Instinctive, Inc.IAB TCF",
  "Instreamatic inc.IAB TCF",
  "InsurAds Technologies SA.IAB TCF",
  "Integral Ad Science, Inc.IAB TCF",
  "Internet BillBoard a.s.IAB TCF",
  "INVIBES GROUPIAB TCF",
  "INVIDI technologies ABIAB TCF",
  "IP Deutschland GmbHIAB TCF",
  "IPONWEB GmbHIAB TCF",
  "iPROMIAB TCF",
  "IPSOS MORI UK LTDIAB TCF",
  "iTunes Link Maker",
  "IVO Media LtdIAB TCF",
  "Jaduda GmbHIAB TCF",
  "Jampp LTDIAB TCF",
  "Jellyfish FranceIAB TCF",
  "Jetpack Digital LLCIAB TCF",
  "Jivox CorporationIAB TCF",
  "Jointag (Next14 Group)IAB TCF",
  "Justpremium BVIAB TCF",
  "Justtag Sp. z o.o.IAB TCF",
  "Kairion GmbHIAB TCF",
  "Kairos FireIAB TCF",
  "Kameleoon SASIAB TCF",
  "KayzenIAB TCF",
  "KeymanticsIAB TCF",
  "Kiosked LtdIAB TCF",
  "KnorexIAB TCF",
  "Kochava Inc.IAB TCF",
  "Kubient Inc. IAB TCF",
  "KUPONA GmbHIAB TCF",
  "KwankoIAB TCF",
  "lead alliance GmbHIAB TCF",
  "LeadsRx, Inc.IAB TCF",
  "LEESTEN INCIAB TCF",
  "Lifesight Pte. Ltd.IAB TCF",
  "LifeStreet CorporationIAB TCF",
  "Liftoff Mobile, Inc.IAB TCF",
  "LinkedIn Ireland Unlimited CompanyIAB TCF",
  "LiquidM Technology GmbHIAB TCF",
  "Listonic Sp. z o.o.IAB TCF",
  "Liveintent Inc.IAB TCF",
  "LiveRamp, Inc.IAB TCF",
  "Localsensor B.V.IAB TCF",
  "Location Sciences AI Ltd.IAB TCF",
  "LoopMe LimitedIAB TCF",
  "Lotame Solutions, incIAB TCF",
  "Lucid Holdings, LLCIAB TCF",
  "LucidityIAB TCF",
  "M,P,NEWMEDIA, GmbHIAB TCF",
  "MadingtonIAB TCF",
  "MADVERTISE MEDIAIAB TCF",
  "Maiden Marketing Pte LtdIAB TCF",
  "mainADV SrlIAB TCF",
  "MairDumont Netletix GmbH&amp;CoKGIAB TCF",
  "Marfeel Solutions, SLIAB TCF",
  "Market Resource Partners LLCIAB TCF",
  "MARKETPERF CORPIAB TCF",
  "Mars Media GroupIAB TCF",
  "Maximus Live LLCIAB TCF",
  "McCann Discipline LTDIAB TCF",
  "Media SquareIAB TCF",
  "Media.net Advertising FZ-LLCIAB TCF",
  "Mediakeys PlatformIAB TCF",
  "MediaMath, Inc.IAB TCF",
  "MEDIAMETRIEIAB TCF",
  "mediarithmics SASIAB TCF",
  "Mediasmart Mobile S.L.IAB TCF",
  "Mediavine, Inc.IAB TCF",
  "Meetrics GmbHIAB TCF",
  "MGID Inc.IAB TCF",
  "Miaozhen Information Technology Co. LtdIAB TCF",
  "Mindlytix SASIAB TCF",
  "MindTake Research GmbHIAB TCF",
  "Mintegral international limitedIAB TCF",
  "MiQIAB TCF",
  "Mirando GmbH &amp; Co KGIAB TCF",
  "MISSENAIAB TCF",
  "mobalo GmbHIAB TCF",
  "Mobfox US LLCIAB TCF",
  "Mobile Professionals BVIAB TCF",
  "MobileFuse LLCIAB TCF",
  "Mobkoi LtdIAB TCF",
  "MobsuccessIAB TCF",
  "Moloco, Inc.IAB TCF",
  "Monet Engine IncIAB TCF",
  "MOVIads Sp. z o.o. Sp. k.IAB TCF",
  "MyTrafficIAB TCF",
  "N Technologies Inc.IAB TCF",
  "Nano Interactive GmbHIAB TCF",
  "Nativo, Inc.IAB TCF",
  "Natív Hirdetés Korlátolt Felelősségű TársaságIAB TCF",
  "NC Audience Exchange, LLC (NewsIQ)IAB TCF",
  "Near Pte LtdIAB TCF",
  "Neodata Group srlIAB TCF",
  "NEORY GmbHIAB TCF",
  "Netsprint SAIAB TCF",
  "NetSuccess, s.r.o.IAB TCF",
  "netzeffekt GmbHIAB TCF",
  "NEURAL.ONEIAB TCF",
  "Neustar on behalf of The Procter &amp; Gamble CompanyIAB TCF",
  "NeuStar, Inc.IAB TCF",
  "Newsroom AI LtdIAB TCF",
  "NEXDIAB TCF",
  "NextRoll, Inc.IAB TCF",
  "Nielsen Marketing CloudIAB TCF",
  "NoBid, Inc.IAB TCF",
  "Norstat ASIAB TCF",
  "Noster Finance S.L.IAB TCF",
  "NotifyIAB TCF",
  "NOW GmbHIAB TCF",
  "Nubo LTDIAB TCF",
  "NumberEight Technologies LtdIAB TCF",
  "numberlyIAB TCF",
  "Objective Partners BVIAB TCF",
  "Ogury Ltd.IAB TCF",
  "On Device Research LimitedIAB TCF",
  "OnAudience LtdIAB TCF",
  "One Planet OnlyIAB TCF",
  "One Tech Group GmbHIAB TCF",
  "OneTag LimitedIAB TCF",
  "Onfocus (Adagio)IAB TCF",
  "Online Advertising Network Sp. z o.o.IAB TCF",
  "Online Solution Int LimitedIAB TCF",
  "Onnetwork Sp. z o.o.IAB TCF",
  "Open MobiIAB TCF",
  "OpenWeb LTDIAB TCF",
  "OpenXIAB TCF",
  "Opinary GmbHIAB TCF",
  "Opti Digital SASIAB TCF",
  "Optomaton UGIAB TCF",
  "Oracle Data CloudIAB TCF",
  "Orion SemanticsIAB TCF",
  "ORTEC B.V.IAB TCF",
  "Otto (GmbH &amp; Co KG)IAB TCF",
  "Outbrain UK LtdIAB TCF",
  "PaperG, Inc. dba Thunder IndustriesIAB TCF",
  "Passendo ApsIAB TCF",
  "Paypersale.ruIAB TCF",
  "Performax.cz, s.r.o.IAB TCF",
  "Permodo GmbHIAB TCF",
  "Permutive LimitedIAB TCF",
  "Permutive Technologies, Inc.IAB TCF",
  "Pexi B.V.IAB TCF",
  "Pinpoll GmbH (Private Limited)IAB TCF",
  "Pixalate, Inc.IAB TCF",
  "PixFuture Media Inc.IAB TCF",
  "PIXIMEDIA SASIAB TCF",
  "Placense LtdIAB TCF",
  "Platform161IAB TCF",
  "Playbuzz Ltd (aka EX.CO)IAB TCF",
  "PLAYGROUND XYZ EMEA LTDIAB TCF",
  "plista GmbHIAB TCF",
  "Polar Mobile Group Inc.IAB TCF",
  "PowerLinks Media LimitedIAB TCF",
  "Prebid.orgIAB TCF",
  "PRECISO SRLIAB TCF",
  "PredicioIAB TCF",
  "Programatica de publicidad S.L.IAB TCF",
  "Protected Media LTDIAB TCF",
  "Proxi.cloud sp. z.o.oIAB TCF",
  "PROXISTOREIAB TCF",
  "Pub Stack",
  "Pubfinity LLCIAB TCF",
  "Publica LLCIAB TCF",
  "Publicis Media GmbHIAB TCF",
  "Publisher First, Inc.IAB TCF",
  "PubMatic, Inc.IAB TCF",
  "PubNative GmbHIAB TCF",
  "PubWise, LLLPIAB TCF",
  "Pure Local Media GmbHIAB TCF",
  "Qriously LtdIAB TCF",
  "Quality Media Network GmbHIAB TCF",
  "Quantcast International LimitedIAB TCF",
  "Quantyoo GmbH & Co. KGIAB TCF",
  "Radio France Kirby",
  "Radio Net Media LimitedIAB TCF",
  "Rakuten Marketing LLCIAB TCF",
  "Reach Media GmbHIAB TCF",
  "Readpeak OyIAB TCF",
  "Realeyes OUIAB TCF",
  "Rebold Marketing &amp; Communication SLUIAB TCF",
  "Redbranch, Inc dba FraudlogixIAB TCF",
  "Reignn Platform LtdIAB TCF",
  "Relay42 Netherlands B.V.IAB TCF",
  "remerge GmbHIAB TCF",
  "Remixd Media, Inc.IAB TCF",
  "Reppublika- The Research Toolbox GmbHIAB TCF",
  "Research and Analysis of Media in Sweden ABIAB TCF",
  "Resolution Media München GmbHIAB TCF",
  "respondi AGIAB TCF",
  "retailAds GmbH &amp; Co. KGIAB TCF",
  "Revcontent, LLCIAB TCF",
  "Reveal Mobile IncIAB TCF",
  "RevJetIAB TCF",
  "Rezonence LimitedIAB TCF",
  "RhythmOne DBA Unruly Group LtdIAB TCF",
  "Rich Audience Technologies SLIAB TCF",
  "RMSi Radio Marketing Service interactive GmbHIAB TCF",
  "Rockabox Media LtdIAB TCF",
  "Roku Advertising ServicesIAB TCF",
  "Roq.ad Inc.IAB TCF",
  "RTB House S.A.IAB TCF",
  "Salesforce.com, Inc.IAB TCF",
  "Samba TV UK LimitedIAB TCF",
  "ScaleMonk Inc.IAB TCF",
  "Scene Stealer LimitedIAB TCF",
  "Seeding Alliance GmbHIAB TCF",
  "Seedtag Advertising S.LIAB TCF",
  "SelectMedia International LTDIAB TCF",
  "Semasio GmbHIAB TCF",
  "Seznam.cz, a.s.IAB TCF",
  "ShareThis, IncIAB TCF",
  "Sharethrough, IncIAB TCF",
  "SheMedia, LLCIAB TCF",
  "ShinyStat S.p.a.IAB TCF",
  "Shopalyst IncIAB TCF",
  "Showheroes SEIAB TCF",
  "Sift Media, IncIAB TCF",
  "Signal Digital Inc.IAB TCF",
  "Signals (Next14 Group)IAB TCF",
  "Simplifi Holdings IncIAB TCF",
  "SINGLESPOT SAS IAB TCF",
  "SirdataIAB TCF",
  "Sirdata CookielessIAB TCF",
  "SITU8ED SAIAB TCF",
  "Sizmek by AmazonIAB TCF",
  "SkazeIAB TCF",
  "Skimbit LtdIAB TCF",
  "Smaato, Inc.IAB TCF",
  "Smadex SLIAB TCF",
  "Smart AdserverIAB TCF",
  "Smart TraffikIAB TCF",
  "smartclip Europe GmbHIAB TCF",
  "Smartclip Hispania SLIAB TCF",
  "Smartme AnalyticsIAB TCF",
  "Smartology LimitedIAB TCF",
  "SMARTSTREAM.TV GmbHIAB TCF",
  "Smile Wanted GroupIAB TCF",
  "Snapsort Inc., operating as SortableIAB TCF",
  "Snapupp Technologies SLIAB TCF",
  "Sojern, Inc.IAB TCF",
  "SolocalIAB TCF",
  "SOMQUERY SOMTAG - (SevenOne Media)IAB TCF",
  "Sonobi, IncIAB TCF",
  "SoundCastIAB TCF",
  "Sourcepoint Technologies, Inc.IAB TCF",
  "Sovrn Holdings IncIAB TCF",
  "SPICY MOBILE Sp z o.o. Sp.k.IAB TCF",
  "Spolecznosci Sp. z o.o. Sp. k.IAB TCF",
  "Sportradar AGIAB TCF",
  "SpotibleIAB TCF",
  "SpotX, Inc.IAB TCF",
  "SpringServe, LLCIAB TCF",
  "Squared SASIAB TCF",
  "StackAdaptIAB TCF",
  "STRIATUM SASIAB TCF",
  "Strossle International ABIAB TCF",
  "Ströer SSP GmbH (DSP)IAB TCF",
  "Ströer SSP GmbH (SSP)IAB TCF",
  "STUDIO GONG GmbH & Co. Studiobetriebs KGIAB TCF",
  "SublimeIAB TCF",
  "SunMedia IAB TCF",
  "Survata Inc.IAB TCF",
  "SYNCIAB TCF",
  "TabMo SASIAB TCF",
  "Taboola Europe LimitedIAB TCF",
  "TACTIC™ Real-Time Marketing ASIAB TCF",
  "Tapad, Inc.IAB TCF",
  "Tapjoy, Inc.IAB TCF",
  "TAPTAP Digital SLIAB TCF",
  "Targetspot Belgium SPRLIAB TCF",
  "TargetVideo GmbHIAB TCF",
  "Teads IAB TCF",
  "Teemo SAIAB TCF",
  "Telaria SASIAB TCF",
  "Telaria, IncIAB TCF",
  "Telecoming S.A.IAB TCF",
  "Telefonica Investigación y Desarrollo S.A.UIAB TCF",
  "TemelioIAB TCF",
  "Teroa S.A.IAB TCF",
  "The ADEX GmbHIAB TCF",
  "The Kantar Group LimitedIAB TCF",
  "The MediaGrid Inc.IAB TCF",
  "THE NEWCO S.R.L.IAB TCF",
  "The Ozone Project LimitedIAB TCF",
  "The Reach Group GmbHIAB TCF",
  "The Rubicon Project, Inc. IAB TCF",
  "The Trade DeskIAB TCF",
  "Think Clever MediaIAB TCF",
  "ThreediumIAB TCF",
  "Timehop, Inc.IAB TCF",
  "TIMEONE PERFORMANCEIAB TCF",
  "travel audience GmbHIAB TCF",
  "TreSensa Technologies, Inc.IAB TCF",
  "Triapodi Ltd.IAB TCF",
  "Trinity AudioIAB TCF",
  "Triple13 LtdIAB TCF",
  "TripleLift, Inc.IAB TCF",
  "Triton Digital Canada Inc.IAB TCF",
  "TrueData Solutions, Inc.IAB TCF",
  "Truvid Inc.IAB TCF",
  "twiago GmbHIAB TCF",
  "TX Group AGIAB TCF",
  "UAB Aktyvus sektorius - EskimiIAB TCF",
  "UAB MeazyIAB TCF",
  "UberMedia, Inc.IAB TCF",
  "ucfunnel Co., Ltd.IAB TCF",
  "Underdog Media LLC IAB TCF",
  "Unilever Polska sp. z o.o.IAB TCF",
  "United Internet Media GmbHIAB TCF",
  "Unruly Group LtdIAB TCF",
  "uppr GmbHIAB TCF",
  "usemax advertisement (Emego GmbH)IAB TCF",
  "Ve Global UK LimitedIAB TCF",
  "VECTAURYIAB TCF",
  "Venatus Media LimitedIAB TCF",
  "Verizon Media EMEA LimitedIAB TCF",
  "VEXPRO TECHNOLOGIES LTDIAB TCF",
  "Vibrant Media LimitedIAB TCF",
  "Vidazoo LtdIAB TCF",
  "video intelligence AGIAB TCF",
  "Vidoomy Media SLIAB TCF",
  "ViewPayIAB TCF",
  "Viralize SRLIAB TCF",
  "Visarity Technologies GmbHIAB TCF",
  "vitrado GmbHIAB TCF",
  "VRTCAL Markets IncIAB TCF",
  "Wagawin GmbHIAB TCF",
  "WebAds B.VIAB TCF",
  "WeboramaIAB TCF",
  "Welect GmbHIAB TCF",
  "WhatRocks Inc. IAB TCF",
  "White Ops, Inc.IAB TCF",
  "Widespace ABIAB TCF",
  "WizalyIAB TCF",
  "xAd, Inc. dba GroundTruthIAB TCF",
  "Xandr, Inc.IAB TCF",
  "XChange by SFBX®IAB TCF",
  "Yieldlab AGIAB TCF",
  "YieldLift LLCIAB TCF",
  "Yieldlove GmbHIAB TCF",
  "Yieldmo, Inc.IAB TCF",
  "YOC AGIAB TCF",
  "ZBO MediaIAB TCF",
  "ZEDO Inc.IAB TCF",
  "Zemanta, Inc.IAB TCF",
  "zeotap GmbHIAB TCF",
  "Zeta GlobalIAB TCF",
  "Ziff Davis LLCIAB TCF",
  "Zoomd Ltd.IAB TCF"
]