[
  "1020, Inc. dba Placecast and Ericsson EmodoIAB TCF",
  "1AgencyIAB TCF",
  "1plusX AGIAB TCF",
  "2KDirect, Inc. (dba iPromote)IAB TCF",
  "33AcrossIAB TCF",
  "360e-com Sp. z o.o.IAB TCF",
  "3Q nexx GmbHIAB TCF",
  "42 Ads GmbHIAB TCF",
  "6Sense Insights, Inc.IAB TCF",
  "7Hops.com Inc. (ZergNet)IAB TCF",
  ": TappxIAB TCF",
  "A Million Ads LtdIAB TCF",
  "A.MobIAB TCF",
  "Aarki, Inc.IAB TCF",
  "AAX LLCIAB TCF",
  "Ab tasty",
  "Accorp Sp. z o.o.IAB TCF",
  "Active Agent (ADITION technologies AG)IAB TCF",
  "AcuityAds Inc.IAB TCF",
  "AcxiomIAB TCF",
  "Ad Alliance GmbHIAB TCF",
  "ad6mediaIAB TCF",
  "Adacado Technologies Inc. (DBA Adacado)IAB TCF",
  "adality GmbHIAB TCF",
  "ADARA MEDIA UNLIMITEDIAB TCF",
  "adbility media GmbHIAB TCF",
  "ADCELL | Firstlead GmbHIAB TCF",
  "AdClear GmbHIAB TCF",
  "AdColony, Inc.IAB TCF",
  "AddApptr GmbHIAB TCF",
  "AdDefend GmbHIAB TCF",
  "AddrelevanceIAB TCF",
  "Adelaide Metrics IncIAB TCF",
  "AdElement Media Solutions Pvt LtdIAB TCF",
  "Adevinta Spain S.L.U.IAB TCF",
  "AdformIAB TCF",
  "AdGear Technologies, Inc.IAB TCF",
  "AdheseIAB TCF",
  "adhood.comIAB TCF",
  "AdikteevIAB TCF",
  "ADITION technologies AGIAB TCF",
  "Adjust GmbHIAB TCF",
  "Adkernel LLCIAB TCF",
  "Adloox SAIAB TCF",
  "Adludio Ltd.IAB TCF",
  "ADMAN - Phaistos Networks, S.A.IAB TCF",
  "ADman Interactive SLUIAB TCF",
  "adMarketplace, Inc.IAB TCF",
  "AdMaxim Inc.IAB TCF",
  "Admedo Technology LtdIAB TCF",
  "admetrics GmbHIAB TCF",
  "Admixer EU GmbHIAB TCF",
  "Admo.tv (Clickon)IAB TCF",
  "Adnami ApsIAB TCF",
  "adnanny.com SLUIAB TCF",
  "Adnuntius ASIAB TCF",
  "Adobe Advertising CloudIAB TCF",
  "Adobe Audience Manager, Adobe Experience PlatformIAB TCF",
  "Adpone SLIAB TCF",
  "adQueryIAB TCF",
  "AdQuiver Media SLIAB TCF",
  "ADRENALEADIAB TCF",
  "adrule mobile GmbHIAB TCF",
  "Adserve.zone / Artworx ASIAB TCF",
  "ADSOCYIAB TCF",
  "Adsolutions BVIAB TCF",
  "AdSpirit GmbHIAB TCF",
  "adsquare GmbHIAB TCF",
  "Adssets ABIAB TCF",
  "ADSTOURS SASIAB TCF",
  "AdsWizz Inc.IAB TCF",
  "Adtarget Medya A.S.IAB TCF",
  "Adtelligent Inc.IAB TCF",
  "AdTheorent, IncIAB TCF",
  "Adtriba GmbHIAB TCF",
  "Adtube ASIAB TCF",
  "ADUXIAB TCF",
  "advanced store GmbHIAB TCF",
  "ADventori SASIAB TCF",
  "AdverlineIAB TCF",
  "Adverticum cPlc.IAB TCF",
  "Adverty AB (publ)IAB TCF",
  "Advisible ABIAB TCF",
  "ADWAYS SASIAB TCF",
  "adWMGIAB TCF",
  "Adxperience SASIAB TCF",
  "ADYOULIKE SAIAB TCF",
  "Adzymic Pte LtdIAB TCF",
  "AerServ LLCIAB TCF",
  "Affle InternationalIAB TCF",
  "agof - daily campaign factsIAB TCF",
  "agof studiesIAB TCF",
  "AirGrid LTDIAB TCF",
  "Alliance Gravity Data MediaIAB TCF",
  "Alphalyr SASIAB TCF",
  "Amazon AdvertisingIAB TCF",
  "Amnet GmbHIAB TCF",
  "Amobee Inc.IAB TCF",
  "ANINPRO-CREATIVE, S.L.IAB TCF",
  "Aniview LTDIAB TCF",
  "AntVoiceIAB TCF",
  "Anzu Virtual Reality LTDIAB TCF",
  "Apester LtdIAB TCF",
  "Appier PTE LtdIAB TCF",
  "appTV Ltd.IAB TCF",
  "Aptivio IncIAB TCF",
  "Arcspire LimitedIAB TCF",
  "AREIA (ADLOOP)IAB TCF",
  "ArkeeroIAB TCF",
  "ARKHEUSIAB TCF",
  "ARMIS SASIAB TCF",
  "Arrivalist CoIAB TCF",
  "Artefact Deutschland GmbHIAB TCF",
  "AT Internet",
  "Audience NetworkIAB TCF",
  "Audience Solutions S.A.IAB TCF",
  "Audience Square",
  "Audience Trading Platform Ltd.IAB TCF",
  "AudienceProject ApsIAB TCF",
  "Audiencerate LTDIAB TCF",
  "AudienceRun corpIAB TCF",
  "Audiens S.r.l.IAB TCF",
  "Audienzz AGIAB TCF",
  "AuDigentIAB TCF",
  "audio content & control GmbHIAB TCF",
  "AUDIOMOB LTDIAB TCF",
  "Automattic AdsIAB TCF",
  "Avocet Systems LimitedIAB TCF",
  "AWIN AGIAB TCF",
  "Axel Springer Teaser Ad GmbHIAB TCF",
  "Axiom Media ConnectIAB TCF",
  "Axonix LTDIAB TCF",
  "Azerion Holding B.V.IAB TCF",
  "B2B Media Group EMEAIAB TCF",
  "bam! interactive marketing GmbH IAB TCF",
  "Bandsintown Amplified LLCIAB TCF",
  "Bannerflow ABIAB TCF",
  "Bannernow, Inc.IAB TCF",
  "Beachfront Media LLCIAB TCF",
  "Beaconspark LtdIAB TCF",
  "BeeswaxIO CorporationIAB TCF",
  "BEINTOO SPAIAB TCF",
  "belboon GmbHIAB TCF",
  "BeOpIAB TCF",
  "Bertelsmann Data Service GmbHIAB TCF",
  "Betgenius LtdIAB TCF",
  "Better Banners A/SIAB TCF",
  "Between ExchangeIAB TCF",
  "BidBerry SRLIAB TCF",
  "BidMachine Inc.IAB TCF",
  "Bidstack LimitedIAB TCF",
  "BIDSWITCH GmbHIAB TCF",
  "Bidtellect, IncIAB TCF",
  "BidTheatre ABIAB TCF",
  "Bigabid Media ltdIAB TCF",
  "BILENDI SAIAB TCF",
  "Bit Q Holdings LimitedIAB TCF",
  "BLIINK SASIAB TCF",
  "Blingby LLCIAB TCF",
  "Blis Media LimitedIAB TCF",
  "Blockthrough, Inc.IAB TCF",
  "BlueIAB TCF",
  "Blue Billywig BVIAB TCF",
  "Bmind a Sales Maker Company, S.L.IAB TCF",
  "Bombora Inc.IAB TCF",
  "Bounce Exchange, IncIAB TCF",
  "Brand Advance LimitedIAB TCF",
  "Brand Metrics Sweden ABIAB TCF",
  "Brave People Ltd.IAB TCF",
  "Brid Video DOOIAB TCF",
  "Bring! Labs AGIAB TCF",
  "BritePool IncIAB TCF",
  "BrowsiIAB TCF",
  "BSmartData GmbHIAB TCF",
  "Bucksense IncIAB TCF",
  "BusinessClickIAB TCF",
  "BYTEDANCE PTE. LTD.IAB TCF",
  "CAKE Software, Inc.IAB TCF",
  "Captify Technologies LimitedIAB TCF",
  "Carbon (AI) LimitedIAB TCF",
  "Caroda s.r.o.IAB TCF",
  "Cavai AS & UK IAB TCF",
  "Cazamba Serviços de Internet LtdaIAB TCF",
  "Cedato Technologies LtdIAB TCF",
  "Celtra, Inc.IAB TCF",
  "CentralNic Poland sp. z o.o.IAB TCF",
  "Channel Pilot Solutions GmbHIAB TCF",
  "ChannelSight IAB TCF",
  "CIBLECLICIAB TCF",
  "Cint ABIAB TCF",
  "Clever Advertising, Lda.IAB TCF",
  "Click Tech LimitedIAB TCF",
  "Clinch Labs LTDIAB TCF",
  "Clipcentric, Inc.IAB TCF",
  "CliprIAB TCF",
  "Cloud Technologies S.A.IAB TCF",
  "Cluep LLCIAB TCF",
  "CMI Marketing, Inc. d/b/a CafeMediaIAB TCF",
  "Collective Europe Ltd.IAB TCF",
  "Comcast International France SASIAB TCF",
  "Commanders ActIAB TCF",
  "communicationAds GmbH & Co. KGIAB TCF",
  "Comscore B.V.IAB TCF",
  "Connatix Native Exchange Inc.IAB TCF",
  "ConnectAd Realtime GmbHIAB TCF",
  "Consumable, Inc.IAB TCF",
  "Contact Impact GmbHIAB TCF",
  "Content IgniteIAB TCF",
  "Converge-DigitalIAB TCF",
  "Converto AGIAB TCF",
  "Cookie Market LTDIAB TCF",
  "Crimtan Holdings LimitedIAB TCF",
  "Criteo SAIAB TCF",
  "Crowdy News LtdIAB TCF",
  "CuebiqIAB TCF",
  "Cxense ASAIAB TCF",
  "cynapsis interactive GmbHIAB TCF",
  "Czech Publisher Exchange z.s.p.o.IAB TCF",
  "Dailymotion SAIAB TCF",
  "Dataseat LtdIAB TCF",
  "dataXtrade GmbHIAB TCF",
  "DAZN Media Services LimitedIAB TCF",
  "DeepIntent, Inc.IAB TCF",
  "DEFINE MEDIA GMBHIAB TCF",
  "Delidatax SLIAB TCF",
  "Delta Projects ABIAB TCF",
  "Demandbase, Inc.IAB TCF",
  "Dentsu Aegis Network Italia SpAIAB TCF",
  "Dentsu London LimitedIAB TCF",
  "Deutsche Post AGIAB TCF",
  "Dianomi ltdIAB TCF",
  "digidip GmbHIAB TCF",
  "Digiseg ApSIAB TCF",
  "Digital East GmbHIAB TCF",
  "Digital SquadIAB TCF",
  "digitalAudienceIAB TCF",
  "DIGITEKA TechnologiesIAB TCF",
  "Discover-Tech ltdIAB TCF",
  "DisqusIAB TCF",
  "district m inc.IAB TCF",
  "DistroScale, Inc.IAB TCF",
  "diva-e products IAB TCF",
  "DNA-I.COMIAB TCF",
  "DoubleVerify Inc.​IAB TCF",
  "Dugout LtdIAB TCF",
  "Duration Media, LLC.IAB TCF",
  "DynAdmicIAB TCF",
  "Dynamic 1001 GmbHIAB TCF",
  "Dynata LLCIAB TCF",
  "EASY Marketing GmbHIAB TCF",
  "EASYmedia GmbHIAB TCF",
  "eBay IncIAB TCF",
  "EDGE NPD Sp. z o.o.IAB TCF",
  "Effiliation / EffinityIAB TCF",
  "eMarketingSolutions, Online Marketing S.L.IAB TCF",
  "Emerse Sverige ABIAB TCF",
  "emetriq GmbHIAB TCF",
  "EMX Digital LLCIAB TCF",
  "EnsightenIAB TCF",
  "Epom Ltd.IAB TCF",
  "EpsilonIAB TCF",
  "ErmesIAB TCF",
  "ETARGET SEIAB TCF",
  "Eulerian TechnologiesIAB TCF",
  "Evolution Technologies Inc.IAB TCF",
  "Exactag GmbHIAB TCF",
  "EXOCLICK, S.L.IAB TCF",
  "Experian LimitedIAB TCF",
  "Exponential Interactive, Inc d/b/a VDX.tvIAB TCF",
  "Extreme Reach, IncIAB TCF",
  "Eyeota Pte LtdIAB TCF",
  "Ezoic Inc.IAB TCF",
  "Facebook Core",
  "Facebook Pixel",
  "Factor Eleven GmbHIAB TCF",
  "Fandom, Inc.IAB TCF",
  "FeedAd GmbHIAB TCF",
  "Fidelity MediaIAB TCF",
  "Fido S.r.lIAB TCF",
  "Fiducia DLT LimitedIAB TCF",
  "Fifty Technology LimitedIAB TCF",
  "Flashtalking, Inc.IAB TCF",
  "Flexoffers.com, LLCIAB TCF",
  "Frameplay CorporationIAB TCF",
  "Free Stream Media Corp. dba Samba TVIAB TCF",
  "FUNKE DIGITAL GmbHIAB TCF",
  "Fusio by S4MIAB TCF",
  "Fyber IAB TCF",
  "G+J Electronic Media Sales GmbHIAB TCF",
  "GADSMEIAB TCF",
  "GamnedIAB TCF",
  "Gamoshi LtdIAB TCF",
  "GDMServices, Inc. d/b/a FiksuDSPIAB TCF",
  "GeistM Technologies LTDIAB TCF",
  "Gemius SAIAB TCF",
  "GeoEdgeIAB TCF",
  "GfK SEIAB TCF",
  "Glimpse Protocol LimitedIAB TCF",
  "Global Media & Entertainment LimitedIAB TCF",
  "GlobalWebIndexIAB TCF",
  "glomex GmbHIAB TCF",
  "Go.pl sp. z o.o.IAB TCF",
  "Goldbach Group AGIAB TCF",
  "Golden BeesIAB TCF",
  "Good-Loop LtdIAB TCF",
  "GoodeedIAB TCF",
  "Goodway Group, Inc.IAB TCF",
  "Google Advertising ProductsIAB TCF",
  "Google Analytics",
  "Google Forms",
  "GP One GmbHIAB TCF",
  "Grabit Interactive Media Inc dba KERV InterctiveIAB TCF",
  "GRAPHINIUMIAB TCF",
  "GroupM UK LimitedIAB TCF",
  "GumGum, Inc.IAB TCF",
  "HabuIAB TCF",
  "Haensel AMS GmbHIAB TCF",
  "HappydemicsIAB TCF",
  "Hashtag Labs Inc.IAB TCF",
  "HEIMSPIEL Medien GmbH & Co KGIAB TCF",
  "Hindsight Technology Solutions, Inc.IAB TCF",
  "Hivestack Inc.IAB TCF",
  "HUAWEI AdsIAB TCF",
  "Hybrid Adtech GmbHIAB TCF",
  "Hybrid TheoryIAB TCF",
  "HyperTV Inc.IAB TCF",
  "I.R.V. D.O.O.IAB TCF",
  "ID5 Technology SASIAB TCF",
  "ImonomyIAB TCF",
  "Impact Tech Inc.IAB TCF",
  "Impact+IAB TCF",
  "Impactify IAB TCF",
  "Improve Digital BVIAB TCF",
  "Index Exchange, Inc. IAB TCF",
  "INFINIA MOBILE S.L.IAB TCF",
  "Infogram",
  "INFOnline GmbHIAB TCF",
  "Ingenious Technologies AGIAB TCF",
  "INIS sp. zo.o.IAB TCF",
  "InMobi Pte LtdIAB TCF",
  "INNITYIAB TCF",
  "Innovid Inc.IAB TCF",
  "Inskin Media LTDIAB TCF",
  "Inspired Mobile LimitedIAB TCF",
  "Instagram",
  "Instagram",
  "Insticator, Inc.IAB TCF",
  "Instinctive, Inc.IAB TCF",
  "Instreamatic inc.IAB TCF",
  "InsurAds Technologies SA.IAB TCF",
  "Integral Ad Science, Inc.IAB TCF",
  "Internet BillBoard a.s.IAB TCF",
  "INVIBES GROUPIAB TCF",
  "INVIDI technologies ABIAB TCF",
  "IP Deutschland GmbHIAB TCF",
  "IPONWEB GmbHIAB TCF",
  "iPROMIAB TCF",
  "iProspect GmbHIAB TCF",
  "IPSOS MORI UK LTDIAB TCF",
  "IQM CORPORATIONIAB TCF",
  "iTunes Link Maker",
  "IVO Media LtdIAB TCF",
  "Jaduda GmbHIAB TCF",
  "Jampp LTDIAB TCF",
  "Jellyfish FranceIAB TCF",
  "Jetpack Digital LLCIAB TCF",
  "Jivox CorporationIAB TCF",
  "JS Web ProductionIAB TCF",
  "Justpremium BVIAB TCF",
  "Justtag Sp. z o.o.IAB TCF",
  "Kairion GmbHIAB TCF",
  "Kairos FireIAB TCF",
  "Kameleoon SASIAB TCF",
  "Kargo Global Inc.IAB TCF",
  "KayzenIAB TCF",
  "Ketchup Adv SpaIAB TCF",
  "KeymanticsIAB TCF",
  "Kiosked LtdIAB TCF",
  "KnorexIAB TCF",
  "Kochava Inc.IAB TCF",
  "Konodrac S.L.IAB TCF",
  "Kubient Inc. IAB TCF",
  "KUPONA GmbHIAB TCF",
  "KwankoIAB TCF",
  "lead alliance GmbHIAB TCF",
  "Leadoo Marketing Technologies LtdIAB TCF",
  "LeadsRx, Inc.IAB TCF",
  "LEESTEN INCIAB TCF",
  "Lifesight Pte. Ltd.IAB TCF",
  "LifeStreet CorporationIAB TCF",
  "Liftoff Mobile, Inc.IAB TCF",
  "LinkedIn Ireland Unlimited CompanyIAB TCF",
  "LiquidM Technology GmbHIAB TCF",
  "Listonic Sp. z o.o.IAB TCF",
  "Liveintent Inc.IAB TCF",
  "LiveRamp, Inc.IAB TCF",
  "Livewrapped ABIAB TCF",
  "Localsensor B.V.IAB TCF",
  "Location Sciences AI Ltd.IAB TCF",
  "LoopMe LimitedIAB TCF",
  "Lotame Solutions, incIAB TCF",
  "Lucid Holdings, LLCIAB TCF",
  "LucidityIAB TCF",
  "Luna Media Group LLCIAB TCF",
  "M,P,NEWMEDIA, GmbHIAB TCF",
  "M32 Connect IncIAB TCF",
  "MadingtonIAB TCF",
  "MADVERTISE MEDIAIAB TCF",
  "Maiden Marketing Pte LtdIAB TCF",
  "mainADV SrlIAB TCF",
  "MairDumont Netletix GmbH&amp;CoKGIAB TCF",
  "Make.org",
  "Marfeel Solutions, SLIAB TCF",
  "Marfeel Solutions, SL (Compass)IAB TCF",
  "Market Resource Partners LLCIAB TCF",
  "MARKETPERF CORPIAB TCF",
  "Mars Media GroupIAB TCF",
  "Maximus Live LLCIAB TCF",
  "McCann Discipline LTDIAB TCF",
  "Media SquareIAB TCF",
  "Media.net Advertising FZ-LLCIAB TCF",
  "Media16 ltdIAB TCF",
  "Mediaforce LTDIAB TCF",
  "Mediakeys PlatformIAB TCF",
  "MediaMath, Inc.IAB TCF",
  "MEDIAMETRIEIAB TCF",
  "mediarithmics SASIAB TCF",
  "Mediascore mbHIAB TCF",
  "Mediasmart Mobile S.L.IAB TCF",
  "Mediavine, Inc.IAB TCF",
  "Meetrics GmbHIAB TCF",
  "MGID Inc.IAB TCF",
  "Miaozhen Information Technology Co. LtdIAB TCF",
  "Mindlytix SASIAB TCF",
  "MindTake Research GmbHIAB TCF",
  "Mintegral international limitedIAB TCF",
  "MiQIAB TCF",
  "Mirando GmbH & Co KGIAB TCF",
  "MISSENAIAB TCF",
  "mobalo GmbHIAB TCF",
  "Mobfox US LLCIAB TCF",
  "Mobile Professionals BVIAB TCF",
  "MobileFuse LLCIAB TCF",
  "Mobilewalla, Inc.IAB TCF",
  "Mobility-Ads GmbHIAB TCF",
  "Mobkoi LtdIAB TCF",
  "MobsuccessIAB TCF",
  "Moloco, Inc.IAB TCF",
  "Monet Engine IncIAB TCF",
  "MOVIads Sp. z o.o. Sp. k.IAB TCF",
  "MUSO TNT LIMITEDIAB TCF",
  "MyTrafficIAB TCF",
  "N Technologies Inc.IAB TCF",
  "Nano Interactive GmbHIAB TCF",
  "Nativo, Inc.IAB TCF",
  "Natív Hirdetés Korlátolt Felelősségű TársaságIAB TCF",
  "NC Audience Exchange, LLC (NewsIQ)IAB TCF",
  "Near Pte LtdIAB TCF",
  "Neodata Group srlIAB TCF",
  "NEORY GmbHIAB TCF",
  "NETILUM (AFFILAE)IAB TCF",
  "Netpoint Media GmbHIAB TCF",
  "NetSuccess, s.r.o.IAB TCF",
  "netzeffekt GmbHIAB TCF",
  "NEURAL.ONEIAB TCF",
  "Neustar on behalf of The Procter & Gamble CompanyIAB TCF",
  "NeuStar, Inc.IAB TCF",
  "Newsroom AI LtdIAB TCF",
  "NEXDIAB TCF",
  "Next MediaIAB TCF",
  "Next Media SRLIAB TCF",
  "NextRoll, Inc.IAB TCF",
  "Nexx360IAB TCF",
  "Nielsen LLCIAB TCF",
  "Nielsen Marketing CloudIAB TCF",
  "NoBid, Inc.IAB TCF",
  "Norstat ASIAB TCF",
  "Noster Finance S.L.IAB TCF",
  "NotifyIAB TCF",
  "NOW GmbHIAB TCF",
  "Nubo LTDIAB TCF",
  "NumberEight Technologies LtdIAB TCF",
  "numberlyIAB TCF",
  "Objective Partners BVIAB TCF",
  "Octaive Ltd.IAB TCF",
  "Ogury Ltd.IAB TCF",
  "On Device Research LimitedIAB TCF",
  "OnAudience LtdIAB TCF",
  "One Planet OnlyIAB TCF",
  "One Tech Group GmbHIAB TCF",
  "Onesoon Limited t/a AdalyserIAB TCF",
  "OneTag LimitedIAB TCF",
  "Onfocus (Adagio)IAB TCF",
  "Online Advertising Network Sp. z o.o.IAB TCF",
  "Online SolutionIAB TCF",
  "Onnetwork Sp. z o.o.IAB TCF",
  "OpenWeb LTDIAB TCF",
  "OpenXIAB TCF",
  "Opinary GmbHIAB TCF",
  "Opt Out Advertising B.V. IAB TCF",
  "Opti Digital SASIAB TCF",
  "Optomaton UGIAB TCF",
  "Oracle Data CloudIAB TCF",
  "Orion SemanticsIAB TCF",
  "Otto (GmbH & Co KG)IAB TCF",
  "Outbrain UK LtdIAB TCF",
  "PaperG, Inc. dba Thunder IndustriesIAB TCF",
  "Parrable, Inc.IAB TCF",
  "Passendo ApsIAB TCF",
  "Paypersale.ruIAB TCF",
  "Pelmorex Corp.IAB TCF",
  "Performax.cz, s.r.o.IAB TCF",
  "Permodo GmbHIAB TCF",
  "Permutive LimitedIAB TCF",
  "Permutive Technologies, Inc.IAB TCF",
  "Persona.lyIAB TCF",
  "Pexi B.V.IAB TCF",
  "Pinpoll GmbHIAB TCF",
  "Pixalate, Inc.IAB TCF",
  "PixFuture Media Inc.IAB TCF",
  "PIXIMEDIA SASIAB TCF",
  "Placense LtdIAB TCF",
  "Platform161 B.V.IAB TCF",
  "Playbuzz Ltd (aka EX.CO)IAB TCF",
  "PLAYGROUND XYZ EMEA LTDIAB TCF",
  "Playrcart LimitedIAB TCF",
  "plista GmbHIAB TCF",
  "PML Innovative MediaIAB TCF",
  "Polar Mobile Group Inc.IAB TCF",
  "PowerLinks Media LimitedIAB TCF",
  "PowerspaceIAB TCF",
  "Prebid.orgIAB TCF",
  "PRECISO SRLIAB TCF",
  "PredicioIAB TCF",
  "Programatica de publicidad S.L.IAB TCF",
  "ProSiebenSat.1 Digital Data GmbHIAB TCF",
  "Protected Media LTDIAB TCF",
  "Proxi.cloud sp. z.o.oIAB TCF",
  "PROXISTOREIAB TCF",
  "Pub Stack",
  "Pubfinity LLCIAB TCF",
  "Publica LLCIAB TCF",
  "Publicis Media GmbHIAB TCF",
  "Publisher First, Inc.IAB TCF",
  "PubMatic, Inc.IAB TCF",
  "PubWise, LLLPIAB TCF",
  "Pulse Innovations LimitedIAB TCF",
  "Pure Local Media GmbHIAB TCF",
  "Qriously LtdIAB TCF",
  "Qualifio",
  "Quality Media Network GmbHIAB TCF",
  "Quantcast International LimitedIAB TCF",
  "QuantumCast digital GmbHIAB TCF",
  "Quantyoo GmbH & Co. KGIAB TCF",
  "QUARTER MEDIA GmbHIAB TCF",
  "Radio France Kirby",
  "Radio Net Media LimitedIAB TCF",
  "Rakuten Marketing LLCIAB TCF",
  "Rapid Performance GmbHIAB TCF",
  "Reach Media GmbHIAB TCF",
  "Readpeak OyIAB TCF",
  "Realeyes OUIAB TCF",
  "Rebold Marketing & Communication SLUIAB TCF",
  "Redbranch, Inc dba FraudlogixIAB TCF",
  "Reignn Platform LtdIAB TCF",
  "Relay42 Netherlands B.V.IAB TCF",
  "remerge GmbHIAB TCF",
  "Remixd Media, Inc.IAB TCF",
  "Reppublika- The Research Toolbox GmbHIAB TCF",
  "Research and Analysis of Media in Sweden ABIAB TCF",
  "Resolution Media München GmbHIAB TCF",
  "respondi AGIAB TCF",
  "retailAds GmbH &amp; Co. KGIAB TCF",
  "Revcontent, LLCIAB TCF",
  "Reveal Mobile IncIAB TCF",
  "RevJetIAB TCF",
  "Rezonence LimitedIAB TCF",
  "Rich Audience Technologies SLIAB TCF",
  "RMSi Radio Marketing Service interactive GmbHIAB TCF",
  "Rockabox Media Ltd t/a ScootaIAB TCF",
  "Roku Advertising ServicesIAB TCF",
  "Roq.ad Inc.IAB TCF",
  "RTB House S.A.IAB TCF",
  "Salesforce.com, Inc.IAB TCF",
  "Samba TV UK LimitedIAB TCF",
  "Samsung AdsIAB TCF",
  "ScaleMonk Inc.IAB TCF",
  "Scene Stealer LimitedIAB TCF",
  "Scribd",
  "Seeding Alliance GmbHIAB TCF",
  "Seedtag Advertising S.LIAB TCF",
  "SelectMedia International LTDIAB TCF",
  "Semasio GmbHIAB TCF",
  "Seznam.cz, a.s.IAB TCF",
  "ShareThis, IncIAB TCF",
  "Sharethrough, IncIAB TCF",
  "SheMedia, LLCIAB TCF",
  "ShinyStat S.p.a.IAB TCF",
  "Shopalyst IncIAB TCF",
  "Showheroes SEIAB TCF",
  "Sift Media, IncIAB TCF",
  "Signal Digital Inc.IAB TCF",
  "Silverbullet Data Services GroupIAB TCF",
  "Simplifi Holdings IncIAB TCF",
  "SINGLESPOT SAS IAB TCF",
  "SirdataIAB TCF",
  "Sirdata CookielessIAB TCF",
  "SITU8ED SAIAB TCF",
  "Sizmek by AmazonIAB TCF",
  "SkazeIAB TCF",
  "Skimbit LtdIAB TCF",
  "Smaato, Inc.IAB TCF",
  "Smadex SLIAB TCF",
  "Smart AdserverIAB TCF",
  "Smart TraffikIAB TCF",
  "smartclip Europe GmbHIAB TCF",
  "Smartclip Hispania SLIAB TCF",
  "SmartFrame TechnologiesIAB TCF",
  "SMARTLINE SYSTEMSIAB TCF",
  "Smartme AnalyticsIAB TCF",
  "Smartology LimitedIAB TCF",
  "SMARTSTREAM.TV GmbHIAB TCF",
  "Smile Wanted GroupIAB TCF",
  "Snapsort Inc., operating as SortableIAB TCF",
  "Snapupp Technologies SLIAB TCF",
  "socoto gmbh &amp; co. kgIAB TCF",
  "SoD ScreenOnDemand GmbHIAB TCF",
  "Sojern, Inc.IAB TCF",
  "SolocalIAB TCF",
  "Solution couponsIAB TCF",
  "Somplo LtdIAB TCF",
  "SOMQUERY SOMTAG - (SevenOne Media)IAB TCF",
  "Sonobi, IncIAB TCF",
  "SoundCastIAB TCF",
  "Soundcloud",
  "Sourcepoint Technologies, Inc. (non-CMP)IAB TCF",
  "Sovrn Holdings IncIAB TCF",
  "Sparklit Networks IncIAB TCF",
  "SPEAKOL DMCCIAB TCF",
  "SpearAd GmbHIAB TCF",
  "SPICY MOBILE Sp z o.o. Sp.k.IAB TCF",
  "Spolecznosci Sp. z o.o. Sp. k.IAB TCF",
  "Spoods GmbHIAB TCF",
  "SPORTORITY UK LTDIAB TCF",
  "Sportradar AGIAB TCF",
  "SpotadIAB TCF",
  "SpotibleIAB TCF",
  "Spotify Embed",
  "SpotX, Inc.IAB TCF",
  "SpringServe, LLCIAB TCF",
  "Squared SASIAB TCF",
  "StackAdaptIAB TCF",
  "Steel House, Inc.IAB TCF",
  "Strossle International ABIAB TCF",
  "Ströer SSP GmbH (DSP)IAB TCF",
  "Ströer SSP GmbH (SSP)IAB TCF",
  "STUDIO GONG GmbH & Co. Studiobetriebs KGIAB TCF",
  "Sub2 Technologies LtdIAB TCF",
  "SublimeIAB TCF",
  "SublimeSkinz - AdledgeIAB TCF",
  "SunMedia IAB TCF",
  "SYNCIAB TCF",
  "TabMo SASIAB TCF",
  "Taboola Europe LimitedIAB TCF",
  "TACTIC™ Real-Time Marketing ASIAB TCF",
  "Tangoo SrlIAB TCF",
  "Tapad, Inc.IAB TCF",
  "Tapjoy, Inc.IAB TCF",
  "TAPTAP Digital SLIAB TCF",
  "Targetspot Belgium SPRLIAB TCF",
  "TargetVideo GmbHIAB TCF",
  "Teads IAB TCF",
  "Teemo SAIAB TCF",
  "Telaria SASIAB TCF",
  "Telaria, IncIAB TCF",
  "Telecoming S.A.IAB TCF",
  "Telefonica Investigación y Desarrollo S.A.UIAB TCF",
  "Terminus Software Inc.IAB TCF",
  "Teroa S.A.IAB TCF",
  "The ADEX GmbHIAB TCF",
  "The Kantar Group LimitedIAB TCF",
  "The MediaGrid Inc.IAB TCF",
  "THE NEWCO S.R.L.IAB TCF",
  "The Ozone Project LimitedIAB TCF",
  "The Reach Group GmbHIAB TCF",
  "The Rubicon Project, Inc. IAB TCF",
  "The Trade DeskIAB TCF",
  "ThreediumIAB TCF",
  "Timehop, Inc.IAB TCF",
  "TIMEONE PERFORMANCEIAB TCF",
  "Traffective GmbHIAB TCF",
  "travel audience GmbHIAB TCF",
  "TreSensa Technologies, Inc.IAB TCF",
  "Triapodi Ltd.IAB TCF",
  "Trinity AudioIAB TCF",
  "Triple13 LtdIAB TCF",
  "TripleLift, Inc.IAB TCF",
  "Triton Digital Canada Inc.IAB TCF",
  "TrueData Solutions, Inc.IAB TCF",
  "Truvid Inc.IAB TCF",
  "TV SQUARED LIMITEDIAB TCF",
  "twiago GmbHIAB TCF",
  "Twitter",
  "Twitter",
  "TX Group AGIAB TCF",
  "UAB Aktyvus sektorius - EskimiIAB TCF",
  "UAB MeazyIAB TCF",
  "UberMedia, Inc.IAB TCF",
  "ucfunnel Co., Ltd.IAB TCF",
  "Underdog Media LLC IAB TCF",
  "Unilever Polska sp. z o.o.IAB TCF",
  "United Internet Media GmbHIAB TCF",
  "Unmatched Solutions LimitedIAB TCF",
  "Unruly Group LLCIAB TCF",
  "Unruly Group LtdIAB TCF",
  "uppr GmbHIAB TCF",
  "Upwave Inc.IAB TCF",
  "usemax advertisement (Emego GmbH)IAB TCF",
  "Ve Global UK LimitedIAB TCF",
  "VECTAURYIAB TCF",
  "Velocity Made Good LLCIAB TCF",
  "Venatus Media LimitedIAB TCF",
  "Verizon Media EMEA LimitedIAB TCF",
  "Verve Group Europe GmbHIAB TCF",
  "VEXPRO TECHNOLOGIES LTDIAB TCF",
  "VGI CTV, IncIAB TCF",
  "Vibrant Media LimitedIAB TCF",
  "Vidazoo LtdIAB TCF",
  "video intelligence AGIAB TCF",
  "Videobyte IncIAB TCF",
  "Vidoomy Media SLIAB TCF",
  "Viewdeos 2015 LTDIAB TCF",
  "ViewPayIAB TCF",
  "Vimeo Inc.",
  "Viralize SRLIAB TCF",
  "Visarity Technologies GmbHIAB TCF",
  "vitrado GmbHIAB TCF",
  "VLYBY Digital GmbHIAB TCF",
  "VRTCAL Markets IncIAB TCF",
  "VUUKLE DMCCIAB TCF",
  "Wagawin GmbHIAB TCF",
  "WAM Group Ltd, t/a AdmixIAB TCF",
  "WebAds B.VIAB TCF",
  "Webgains GmbHIAB TCF",
  "WeboramaIAB TCF",
  "Welect GmbHIAB TCF",
  "WEMASS MEDIA AUDIENCE SAFE SOLUTIONS, S.L. IAB TCF",
  "wetter.com GmbHIAB TCF",
  "WhatRocks Inc. IAB TCF",
  "White Ops, Inc.IAB TCF",
  "Widespace ABIAB TCF",
  "WizalyIAB TCF",
  "xAd, Inc. dba GroundTruthIAB TCF",
  "Xandr, Inc.IAB TCF",
  "XChange by SFBX®IAB TCF",
  "Yieldlab AGIAB TCF",
  "YieldLift LLCIAB TCF",
  "Yieldlove GmbHIAB TCF",
  "Yieldmo, Inc.IAB TCF",
  "YOC AGIAB TCF",
  "YouGovIAB TCF",
  "Youtube",
  "ZAM Network LLC dba FanbyteIAB TCF",
  "ZBO MediaIAB TCF",
  "ZEDO Inc.IAB TCF",
  "Zemanta, Inc.IAB TCF",
  "zeotap GmbHIAB TCF",
  "Zeta GlobalIAB TCF",
  "Ziff Davis LLCIAB TCF",
  "Zoomd Ltd.IAB TCF"
]