fra;jour;n_dose1;n_complet;n_rappel;n_cum_dose1;n_cum_complet;n_cum_rappel;couv_dose1;couv_complet;couv_rappel
FR;2020-12-27;432;51;0;432;51;0;0.0;0.0;0.0
FR;2020-12-28;457;39;0;889;90;0;0.0;0.0;0.0
FR;2020-12-29;288;17;0;1177;107;0;0.0;0.0;0.0
FR;2020-12-30;341;16;0;1518;123;0;0.0;0.0;0.0
FR;2020-12-31;275;18;0;1793;141;0;0.0;0.0;0.0
FR;2021-01-01;320;35;0;2113;176;0;0.0;0.0;0.0
FR;2021-01-02;257;29;0;2370;205;0;0.0;0.0;0.0
FR;2021-01-03;284;28;0;2654;233;0;0.0;0.0;0.0
FR;2021-01-04;1798;47;0;4452;280;0;0.0;0.0;0.0
FR;2021-01-05;5740;69;0;10192;349;0;0.0;0.0;0.0
FR;2021-01-06;11637;103;0;21829;452;0;0.0;0.0;0.0
FR;2021-01-07;29106;142;0;50935;594;0;0.1;0.0;0.0
FR;2021-01-08;36770;192;0;87705;786;0;0.1;0.0;0.0
FR;2021-01-09;11106;69;0;98811;855;0;0.1;0.0;0.0
FR;2021-01-10;5778;23;0;104589;878;0;0.2;0.0;0.0
FR;2021-01-11;39675;218;0;144264;1096;0;0.2;0.0;0.0
FR;2021-01-12;61735;301;0;205999;1397;0;0.3;0.0;0.0
FR;2021-01-13;64687;414;0;270686;1811;0;0.4;0.0;0.0
FR;2021-01-14;82224;1185;0;352910;2996;0;0.5;0.0;0.0
FR;2021-01-15;68582;581;0;421492;3577;0;0.6;0.0;0.0
FR;2021-01-16;20054;204;0;441546;3781;0;0.7;0.0;0.0
FR;2021-01-17;10857;130;0;452403;3911;0;0.7;0.0;0.0
FR;2021-01-18;85484;613;0;537887;4524;0;0.8;0.0;0.0
FR;2021-01-19;130197;833;0;668084;5357;0;1.0;0.0;0.0
FR;2021-01-20;137130;871;0;805214;6228;0;1.2;0.0;0.0
FR;2021-01-21;157742;964;0;962956;7192;0;1.4;0.0;0.0
FR;2021-01-22;120547;794;0;1083503;7986;0;1.6;0.0;0.0
FR;2021-01-23;38291;197;0;1121794;8183;0;1.7;0.0;0.0
FR;2021-01-24;9636;88;0;1131430;8271;0;1.7;0.0;0.0
FR;2021-01-25;77820;1526;0;1209250;9797;0;1.8;0.0;0.0
FR;2021-01-26;100029;3573;0;1309279;13370;0;2.0;0.0;0.0
FR;2021-01-27;106933;6296;0;1416212;19666;0;2.1;0.0;0.0
FR;2021-01-28;123958;15077;0;1540170;34743;0;2.3;0.1;0.0
FR;2021-01-29;91829;17694;0;1631999;52437;0;2.4;0.1;0.0
FR;2021-01-30;28967;4278;0;1660966;56715;0;2.5;0.1;0.0
FR;2021-01-31;5122;1693;0;1666088;58408;0;2.5;0.1;0.0
FR;2021-02-01;52347;21187;0;1718435;79595;0;2.6;0.1;0.0
FR;2021-02-02;71792;34797;0;1790227;114392;0;2.7;0.2;0.0
FR;2021-02-03;71923;37162;0;1862150;151554;0;2.8;0.2;0.0
FR;2021-02-04;81552;50303;0;1943702;201857;0;2.9;0.3;0.0
FR;2021-02-05;67885;45378;0;2011587;247235;0;3.0;0.4;0.0
FR;2021-02-06;22343;10515;0;2033930;257750;0;3.0;0.4;0.0
FR;2021-02-07;5056;5112;0;2038986;262862;0;3.0;0.4;0.0
FR;2021-02-08;46446;45997;0;2085432;308859;0;3.1;0.5;0.0
FR;2021-02-09;65615;72892;0;2151047;381751;0;3.2;0.6;0.0
FR;2021-02-10;70353;77229;0;2221400;458980;0;3.3;0.7;0.0
FR;2021-02-11;86713;100067;0;2308113;559047;0;3.4;0.8;0.0
FR;2021-02-12;78689;75202;0;2386802;634249;0;3.6;0.9;0.0
FR;2021-02-13;22085;19594;0;2408887;653843;0;3.6;1.0;0.0
FR;2021-02-14;4867;7232;0;2413754;661075;0;3.6;1.0;0.0
FR;2021-02-15;37617;76478;0;2451371;737553;0;3.7;1.1;0.0
FR;2021-02-16;49860;100803;0;2501231;838356;0;3.7;1.2;0.0
FR;2021-02-17;50003;103046;0;2551234;941402;0;3.8;1.4;0.0
FR;2021-02-18;69132;119059;0;2620366;1060461;0;3.9;1.6;0.0
FR;2021-02-19;64611;91362;0;2684977;1151823;0;4.0;1.7;0.0
FR;2021-02-20;18320;28421;0;2703297;1180244;0;4.0;1.8;0.0
FR;2021-02-21;3138;6409;0;2706435;1186653;0;4.0;1.8;0.0
FR;2021-02-22;37088;73104;0;2743523;1259757;0;4.1;1.9;0.0
FR;2021-02-23;53327;84567;0;2796850;1344324;0;4.2;2.0;0.0
FR;2021-02-24;59342;81763;0;2856192;1426087;0;4.3;2.1;0.0
FR;2021-02-25;99944;93206;0;2956136;1519293;0;4.4;2.3;0.0
FR;2021-02-26;112827;73312;0;3068963;1592605;0;4.6;2.4;0.0
FR;2021-02-27;51770;22996;0;3120733;1615601;0;4.6;2.4;0.0
FR;2021-02-28;5986;4569;0;3126719;1620170;0;4.7;2.4;0.0
FR;2021-03-01;64774;54017;0;3191493;1674187;0;4.8;2.5;0.0
FR;2021-03-02;100583;68592;0;3292076;1742779;0;4.9;2.6;0.0
FR;2021-03-03;115437;68308;0;3407513;1811087;0;5.1;2.7;0.0
FR;2021-03-04;162647;73619;0;3570160;1884706;0;5.3;2.8;0.0
FR;2021-03-05;199849;69424;0;3770009;1954130;0;5.6;2.9;0.0
FR;2021-03-06;207175;22947;0;3977184;1977077;0;5.9;2.9;0.0
FR;2021-03-07;120776;8675;0;4097960;1985752;0;6.1;3.0;0.0
FR;2021-03-08;106318;53743;0;4204278;2039495;0;6.3;3.0;0.0
FR;2021-03-09;171583;61594;0;4375861;2101089;0;6.5;3.1;0.0
FR;2021-03-10;177703;62234;0;4553564;2163323;0;6.8;3.2;0.0
FR;2021-03-11;241699;70545;0;4795263;2233868;0;7.1;3.3;0.0
FR;2021-03-12;293638;62401;0;5088901;2296269;0;7.6;3.4;0.0
FR;2021-03-13;230473;21084;0;5319374;2317353;0;7.9;3.5;0.0
FR;2021-03-14;62928;5441;0;5382302;2322794;0;8.0;3.5;0.0
FR;2021-03-15;157582;36933;0;5539884;2359727;0;8.3;3.5;0.0
FR;2021-03-16;140718;43183;0;5680602;2402910;0;8.5;3.6;0.0
FR;2021-03-17;149612;43053;0;5830214;2445963;0;8.7;3.6;0.0
FR;2021-03-18;166865;49615;0;5997079;2495578;0;8.9;3.7;0.0
FR;2021-03-19;228970;44299;0;6226049;2539877;0;9.3;3.8;0.0
FR;2021-03-20;165976;16282;0;6392025;2556159;0;9.5;3.8;0.0
FR;2021-03-21;49459;4343;0;6441484;2560502;0;9.6;3.8;0.0
FR;2021-03-22;168976;39427;0;6610460;2599929;0;9.8;3.9;0.0
FR;2021-03-23;249159;49645;0;6859619;2649574;0;10.2;3.9;0.0
FR;2021-03-24;255692;51217;0;7115311;2700791;0;10.6;4.0;0.0
FR;2021-03-25;340604;55219;0;7455915;2756010;0;11.1;4.1;0.0
FR;2021-03-26;357654;53078;0;7813569;2809088;0;11.6;4.2;0.0
FR;2021-03-27;194560;22952;0;8008129;2832040;0;11.9;4.2;0.0
FR;2021-03-28;58948;5734;0;8067077;2837774;0;12.0;4.2;0.0
FR;2021-03-29;202096;60527;0;8269173;2898301;0;12.3;4.3;0.0
FR;2021-03-30;284157;79321;0;8553330;2977622;0;12.7;4.4;0.0
FR;2021-03-31;261774;82885;0;8815104;3060507;0;13.1;4.6;0.0
FR;2021-04-01;313261;100595;0;9128365;3161102;0;13.6;4.7;0.0
FR;2021-04-02;280061;103105;0;9408426;3264207;0;14.0;4.9;0.0
FR;2021-04-03;140241;66667;0;9548667;3330874;0;14.2;5.0;0.0
FR;2021-04-04;45421;20584;0;9594088;3351458;0;14.3;5.0;0.0
FR;2021-04-05;59755;13545;0;9653843;3365003;0;14.4;5.0;0.0
FR;2021-04-06;215625;115779;0;9869468;3480782;0;14.7;5.2;0.0
FR;2021-04-07;258433;125837;0;10127901;3606619;0;15.1;5.4;0.0
FR;2021-04-08;335782;135941;0;10463683;3742560;0;15.6;5.6;0.0
FR;2021-04-09;408276;133064;0;10871959;3875624;0;16.2;5.8;0.0
FR;2021-04-10;211606;90674;0;11083565;3966298;0;16.5;5.9;0.0
FR;2021-04-11;55540;36976;0;11139105;4003274;0;16.6;6.0;0.0
FR;2021-04-12;235578;124020;0;11374683;4127294;0;16.9;6.1;0.0
FR;2021-04-13;307764;156901;0;11682447;4284195;0;17.4;6.4;0.0
FR;2021-04-14;292237;151929;0;11974684;4436124;0;17.8;6.6;0.0
FR;2021-04-15;334542;162579;0;12309226;4598703;0;18.3;6.9;0.0
FR;2021-04-16;337737;159647;0;12646963;4758350;0;18.8;7.1;0.0
FR;2021-04-17;187727;97494;0;12834690;4855844;0;19.1;7.2;0.0
FR;2021-04-18;51024;37731;0;12885714;4893575;0;19.2;7.3;0.0
FR;2021-04-19;204198;146902;0;13089912;5040477;0;19.5;7.5;0.0
FR;2021-04-20;252498;181754;0;13342410;5222231;0;19.9;7.8;0.0
FR;2021-04-21;251361;180250;0;13593771;5402481;0;20.3;8.0;0.0
FR;2021-04-22;285699;202301;0;13879470;5604782;0;20.7;8.4;0.0
FR;2021-04-23;295505;200984;0;14174975;5805766;0;21.1;8.7;0.0
FR;2021-04-24;189348;121680;0;14364323;5927446;0;21.4;8.8;0.0
FR;2021-04-25;68934;42478;0;14433257;5969924;0;21.5;8.9;0.0
FR;2021-04-26;219571;168844;0;14652828;6138768;0;21.8;9.1;0.0
FR;2021-04-27;282820;210389;0;14935648;6349157;0;22.3;9.5;0.0
FR;2021-04-28;297816;208248;0;15233464;6557405;0;22.7;9.8;0.0
FR;2021-04-29;355127;231053;0;15588591;6788458;0;23.2;10.1;0.0
FR;2021-04-30;370308;224001;1;15958899;7012459;1;23.8;10.4;0.0
FR;2021-05-01;165162;63624;0;16124061;7076083;1;24.0;10.5;0.0
FR;2021-05-02;90797;43416;0;16214858;7119499;1;24.2;10.6;0.0
FR;2021-05-03;285969;189745;0;16500827;7309244;1;24.6;10.9;0.0
FR;2021-05-04;312715;250209;0;16813542;7559453;1;25.1;11.3;0.0
FR;2021-05-05;323166;249286;0;17136708;7808739;1;25.5;11.6;0.0
FR;2021-05-06;376018;273296;0;17512726;8082035;1;26.1;12.0;0.0
FR;2021-05-07;370073;297921;0;17882799;8379956;1;26.6;12.5;0.0
FR;2021-05-08;220718;81902;0;18103517;8461858;1;27.0;12.6;0.0
FR;2021-05-09;128891;55273;0;18232408;8517131;1;27.2;12.7;0.0
FR;2021-05-10;308993;254383;0;18541401;8771514;1;27.6;13.1;0.0
FR;2021-05-11;400771;296257;0;18942172;9067771;1;28.2;13.5;0.0
FR;2021-05-12;430372;269181;0;19372544;9336952;1;28.9;13.9;0.0
FR;2021-05-13;335697;78221;0;19708241;9415173;1;29.4;14.0;0.0
FR;2021-05-14;450636;202840;0;20158877;9618013;1;30.0;14.3;0.0
FR;2021-05-15;371639;120157;0;20530516;9738170;1;30.6;14.5;0.0
FR;2021-05-16;201441;34120;0;20731957;9772290;1;30.9;14.6;0.0
FR;2021-05-17;373265;178889;0;21105222;9951179;1;31.4;14.8;0.0
FR;2021-05-18;456047;192396;0;21561269;10143575;1;32.1;15.1;0.0
FR;2021-05-19;464235;182877;0;22025504;10326452;1;32.8;15.4;0.0
FR;2021-05-20;503717;204453;0;22529221;10530905;1;33.6;15.7;0.0
FR;2021-05-21;486323;221017;0;23015544;10751922;1;34.3;16.0;0.0
FR;2021-05-22;345142;108072;0;23360686;10859994;1;34.8;16.2;0.0
FR;2021-05-23;160691;26884;0;23521377;10886878;1;35.0;16.2;0.0
FR;2021-05-24;261389;53010;0;23782766;10939888;1;35.4;16.3;0.0
FR;2021-05-25;397077;225958;0;24179843;11165846;1;36.0;16.6;0.0
FR;2021-05-26;410437;226339;0;24590280;11392185;1;36.6;17.0;0.0
FR;2021-05-27;446720;265805;0;25037000;11657990;1;37.3;17.4;0.0
FR;2021-05-28;426746;317418;0;25463746;11975408;1;37.9;17.8;0.0
FR;2021-05-29;297434;181907;0;25761180;12157315;1;38.4;18.1;0.0
FR;2021-05-30;106146;42042;0;25867326;12199357;1;38.5;18.2;0.0
FR;2021-05-31;355549;241494;0;26222875;12440851;1;39.1;18.5;0.0
FR;2021-06-01;422245;302740;0;26645120;12743591;1;39.7;19.0;0.0
FR;2021-06-02;412259;277868;0;27057379;13021459;1;40.3;19.4;0.0
FR;2021-06-03;458092;312781;0;27515471;13334240;1;41.0;19.9;0.0
FR;2021-06-04;451383;361505;0;27966854;13695745;1;41.7;20.4;0.0
FR;2021-06-05;302153;221757;0;28269007;13917502;1;42.1;20.7;0.0
FR;2021-06-06;131368;61033;0;28400375;13978535;1;42.3;20.8;0.0
FR;2021-06-07;334290;298999;0;28734665;14277534;1;42.8;21.3;0.0
FR;2021-06-08;389599;337521;0;29124264;14615055;1;43.4;21.8;0.0
FR;2021-06-09;380259;319893;0;29504523;14934948;1;44.0;22.3;0.0
FR;2021-06-10;398090;338389;0;29902613;15273337;1;44.6;22.8;0.0
FR;2021-06-11;383524;407113;0;30286137;15680450;1;45.1;23.4;0.0
FR;2021-06-12;281059;243088;0;30567196;15923538;1;45.5;23.7;0.0
FR;2021-06-13;103789;84875;0;30670985;16008413;1;45.7;23.9;0.0
FR;2021-06-14;237909;384444;0;30908894;16392857;1;46.1;24.4;0.0
FR;2021-06-15;304434;424120;1;31213328;16816977;2;46.5;25.1;0.0
FR;2021-06-16;310470;395040;0;31523798;17212017;2;47.0;25.6;0.0
FR;2021-06-17;314324;412796;0;31838122;17624813;2;47.4;26.3;0.0
FR;2021-06-18;318929;485392;1;32157051;18110205;3;47.9;27.0;0.0
FR;2021-06-19;222957;300684;0;32380008;18410889;3;48.2;27.4;0.0
FR;2021-06-20;73268;111477;0;32453276;18522366;3;48.4;27.6;0.0
FR;2021-06-21;193115;427437;0;32646391;18949803;3;48.6;28.2;0.0
FR;2021-06-22;220643;499368;1;32867034;19449171;4;49.0;29.0;0.0
FR;2021-06-23;231209;473613;0;33098243;19922784;4;49.3;29.7;0.0
FR;2021-06-24;239277;446423;0;33337520;20369207;4;49.7;30.3;0.0
FR;2021-06-25;224396;560830;0;33561916;20930037;4;50.0;31.2;0.0
FR;2021-06-26;151733;395190;0;33713649;21325227;4;50.2;31.8;0.0
FR;2021-06-27;55080;165027;0;33768729;21490254;4;50.3;32.0;0.0
FR;2021-06-28;152670;478359;0;33921399;21968613;4;50.5;32.7;0.0
FR;2021-06-29;180725;537447;0;34102124;22506060;4;50.8;33.5;0.0
FR;2021-06-30;201602;515937;3;34303726;23021997;7;51.1;34.3;0.0
FR;2021-07-01;224974;498121;1;34528700;23520118;8;51.4;35.0;0.0
FR;2021-07-02;223187;563324;3;34751887;24083442;11;51.8;35.9;0.0
FR;2021-07-03;140139;395429;1;34892026;24478871;12;52.0;36.5;0.0
FR;2021-07-04;55919;150963;0;34947945;24629834;12;52.1;36.7;0.0
FR;2021-07-05;164451;449843;3;35112396;25079677;15;52.3;37.4;0.0
FR;2021-07-06;193619;512070;6;35306015;25591747;21;52.6;38.1;0.0
FR;2021-07-07;208873;478162;3;35514888;26069909;24;52.9;38.8;0.0
FR;2021-07-08;228481;468598;0;35743369;26538507;24;53.3;39.5;0.0
FR;2021-07-09;226088;556726;1;35969457;27095233;25;53.6;40.4;0.0
FR;2021-07-10;146770;368774;0;36116227;27464007;25;53.8;40.9;0.0
FR;2021-07-11;59356;121030;0;36175583;27585037;25;53.9;41.1;0.0
FR;2021-07-12;166541;513471;3;36342124;28098508;28;54.1;41.9;0.0
FR;2021-07-13;284760;587211;3;36626884;28685719;31;54.6;42.7;0.0
FR;2021-07-14;178868;187005;0;36805752;28872724;31;54.8;43.0;0.0
FR;2021-07-15;343997;572770;1;37149749;29445494;32;55.4;43.9;0.0
FR;2021-07-16;377441;575605;1;37527190;30021099;33;55.9;44.7;0.0
FR;2021-07-17;258234;368982;1;37785424;30390081;34;56.3;45.3;0.0
FR;2021-07-18;109029;133454;0;37894453;30523535;34;56.5;45.5;0.0
FR;2021-07-19;283334;480467;2;38177787;31004002;36;56.9;46.2;0.0
FR;2021-07-20;374411;525401;0;38552198;31529403;36;57.4;47.0;0.0
FR;2021-07-21;393263;483204;2;38945461;32012607;38;58.0;47.7;0.0
FR;2021-07-22;438315;472864;1;39383776;32485471;39;58.7;48.4;0.0
FR;2021-07-23;436450;510885;3;39820226;32996356;42;59.3;49.2;0.0
FR;2021-07-24;284213;322403;0;40104439;33318759;42;59.8;49.6;0.0
FR;2021-07-25;120414;100381;0;40224853;33419140;42;59.9;49.8;0.0
FR;2021-07-26;345574;386217;2;40570427;33805357;44;60.4;50.4;0.0
FR;2021-07-27;461357;401467;3;41031784;34206824;47;61.1;51.0;0.0
FR;2021-07-28;456714;367533;1;41488498;34574357;48;61.8;51.5;0.0
FR;2021-07-29;487029;357487;1;41975527;34931844;49;62.5;52.0;0.0
FR;2021-07-30;459487;381319;3;42435014;35313163;52;63.2;52.6;0.0
FR;2021-07-31;284310;231368;0;42719324;35544531;52;63.7;53.0;0.0
FR;2021-08-01;110344;65636;0;42829668;35610167;52;63.8;53.1;0.0
FR;2021-08-02;336978;284899;1;43166646;35895066;53;64.3;53.5;0.0
FR;2021-08-03;393839;305187;0;43560485;36200253;53;64.9;53.9;0.0
FR;2021-08-04;381615;265925;0;43942100;36466178;53;65.5;54.3;0.0
FR;2021-08-05;362997;281876;0;44305097;36748054;53;66.0;54.8;0.0
FR;2021-08-06;356937;327256;0;44662034;37075310;53;66.5;55.2;0.0
FR;2021-08-07;211315;209884;1;44873349;37285194;54;66.9;55.6;0.0
FR;2021-08-08;72718;73496;0;44946067;37358690;54;67.0;55.7;0.0
FR;2021-08-09;256258;298511;2;45202325;37657201;56;67.4;56.1;0.0
FR;2021-08-10;303206;324796;1;45505531;37981997;57;67.8;56.6;0.0
FR;2021-08-11;276865;302637;1;45782396;38284634;58;68.2;57.0;0.0
FR;2021-08-12;269076;320727;0;46051472;38605361;58;68.6;57.5;0.0
FR;2021-08-13;250037;314281;1;46301509;38919642;59;69.0;58.0;0.0
FR;2021-08-14;144188;219918;0;46445697;39139560;59;69.2;58.3;0.0
FR;2021-08-15;37922;55608;1;46483619;39195168;60;69.3;58.4;0.0
FR;2021-08-16;184195;346658;0;46667814;39541826;60;69.5;58.9;0.0
FR;2021-08-17;213757;370258;2;46881571;39912084;62;69.9;59.5;0.0
FR;2021-08-18;196942;355341;2;47078513;40267425;64;70.1;60.0;0.0
FR;2021-08-19;190231;356348;1;47268744;40623773;65;70.4;60.5;0.0
FR;2021-08-20;184247;395937;1;47452991;41019710;66;70.7;61.1;0.0
FR;2021-08-21;103887;254589;0;47556878;41274299;66;70.9;61.5;0.0
FR;2021-08-22;31548;92180;1;47588426;41366479;67;70.9;61.6;0.0
FR;2021-08-23;139657;380030;2;47728083;41746509;69;71.1;62.2;0.0
FR;2021-08-24;161026;403749;1;47889109;42150258;70;71.4;62.8;0.0
FR;2021-08-25;149285;376240;3;48038394;42526498;73;71.6;63.4;0.0
FR;2021-08-26;141278;368310;6;48179672;42894808;79;71.8;63.9;0.0
FR;2021-08-27;146739;415365;6;48326411;43310173;85;72.0;64.5;0.0
FR;2021-08-28;89890;265577;0;48416301;43575750;85;72.1;64.9;0.0
FR;2021-08-29;26901;88356;1;48443202;43664106;86;72.2;65.1;0.0
FR;2021-08-30;116001;341909;6215;48559203;44006015;6301;72.4;65.6;0.0
FR;2021-08-31;127680;353601;12068;48686883;44359616;18369;72.5;66.1;0.0
FR;2021-09-01;129119;301806;23791;48816002;44661422;42160;72.7;66.5;0.1
FR;2021-09-02;106707;261961;28430;48922709;44923383;70590;72.9;66.9;0.1
FR;2021-09-03;115457;309089;32661;49038166;45232472;103251;73.1;67.4;0.2
FR;2021-09-04;88652;230323;13868;49126818;45462795;117119;73.2;67.7;0.2
FR;2021-09-05;20906;48367;4663;49147724;45511162;121782;73.2;67.8;0.2
FR;2021-09-06;71915;190891;33952;49219639;45702053;155734;73.3;68.1;0.2
FR;2021-09-07;74977;191087;35535;49294616;45893140;191269;73.4;68.4;0.3
FR;2021-09-08;86338;216518;31948;49380954;46109658;223217;73.6;68.7;0.3
FR;2021-09-09;72928;173850;35414;49453882;46283508;258631;73.7;69.0;0.4
FR;2021-09-10;92656;214493;39472;49546538;46498001;298103;73.8;69.3;0.4
FR;2021-09-11;65392;177890;13921;49611930;46675891;312024;73.9;69.5;0.5
FR;2021-09-12;12339;34121;3067;49624269;46710012;315091;73.9;69.6;0.5
FR;2021-09-13;62279;134293;42974;49686548;46844305;358065;74.0;69.8;0.5
FR;2021-09-14;70822;135844;60150;49757370;46980149;418215;74.1;70.0;0.6
FR;2021-09-15;73418;174164;53608;49830788;47154313;471823;74.2;70.3;0.7
FR;2021-09-16;61826;117019;58654;49892614;47271332;530477;74.3;70.4;0.8
FR;2021-09-17;73429;159067;56163;49966043;47430399;586640;74.4;70.7;0.9
FR;2021-09-18;47595;143792;17056;50013638;47574191;603696;74.5;70.9;0.9
FR;2021-09-19;7537;24920;2574;50021175;47599111;606270;74.5;70.9;0.9
FR;2021-09-20;41898;95953;49140;50063073;47695064;655410;74.6;71.1;1.0
FR;2021-09-21;44727;98172;61786;50107800;47793236;717196;74.7;71.2;1.1
FR;2021-09-22;47101;143503;53732;50154901;47936739;770928;74.7;71.4;1.1
FR;2021-09-23;42003;89754;61425;50196904;48026493;832353;74.8;71.6;1.2
FR;2021-09-24;51073;130708;57759;50247977;48157201;890112;74.9;71.8;1.3
FR;2021-09-25;34363;117738;18024;50282340;48274939;908136;74.9;71.9;1.4
FR;2021-09-26;5225;18615;2259;50287565;48293554;910395;74.9;72.0;1.4
FR;2021-09-27;33124;78339;47317;50320689;48371893;957712;75.0;72.1;1.4
FR;2021-09-28;35530;73390;55385;50356219;48445283;1013097;75.0;72.2;1.5
FR;2021-09-29;43190;102240;53300;50399409;48547523;1066397;75.1;72.3;1.6
FR;2021-09-30;34979;68841;57916;50434388;48616364;1124313;75.1;72.4;1.7
FR;2021-10-01;49956;97208;62535;50484344;48713572;1186848;75.2;72.6;1.8
FR;2021-10-02;36191;80910;23074;50520535;48794482;1209922;75.3;72.7;1.8
FR;2021-10-03;4931;11311;2490;50525466;48805793;1212412;75.3;72.7;1.8
FR;2021-10-04;28705;58471;53915;50554171;48864264;1266327;75.3;72.8;1.9
FR;2021-10-05;29709;61531;63511;50583880;48925795;1329838;75.4;72.9;2.0
FR;2021-10-06;39067;79386;67143;50622947;49005181;1396981;75.4;73.0;2.1
FR;2021-10-07;28424;58510;67271;50651371;49063691;1464252;75.5;73.1;2.2
FR;2021-10-08;43825;88965;83380;50695196;49152656;1547632;75.5;73.2;2.3
FR;2021-10-09;32198;63492;33445;50727394;49216148;1581077;75.6;73.3;2.4
FR;2021-10-10;3900;7498;3349;50731294;49223646;1584426;75.6;73.3;2.4
FR;2021-10-11;27160;49866;63211;50758454;49273512;1647637;75.6;73.4;2.5
FR;2021-10-12;28623;50630;74460;50787077;49324142;1722097;75.7;73.5;2.6
FR;2021-10-13;37619;61901;78375;50824696;49386043;1800472;75.7;73.6;2.7
FR;2021-10-14;28163;49043;72496;50852859;49435086;1872968;75.8;73.7;2.8
FR;2021-10-15;41403;69006;101914;50894262;49504092;1974882;75.8;73.8;2.9
FR;2021-10-16;29757;46230;39333;50924019;49550322;2014215;75.9;73.8;3.0
FR;2021-10-17;3601;5679;3600;50927620;49556001;2017815;75.9;73.8;3.0
FR;2021-10-18;25449;40499;70738;50953069;49596500;2088553;75.9;73.9;3.1
FR;2021-10-19;25247;40500;80754;50978316;49637000;2169307;76.0;74.0;3.2
FR;2021-10-20;33029;50723;100540;51011345;49687723;2269847;76.0;74.0;3.4
FR;2021-10-21;24216;40925;87631;51035561;49728648;2357478;76.0;74.1;3.5
FR;2021-10-22;35466;58026;111336;51071027;49786674;2468814;76.1;74.2;3.7
FR;2021-10-23;25590;40851;48186;51096617;49827525;2517000;76.1;74.2;3.8
FR;2021-10-24;2707;4942;3832;51099324;49832467;2520832;76.1;74.2;3.8
FR;2021-10-25;24518;34447;85807;51123842;49866914;2606639;76.2;74.3;3.9
FR;2021-10-26;22637;31611;90942;51146479;49898525;2697581;76.2;74.3;4.0
FR;2021-10-27;28800;43090;113462;51175279;49941615;2811043;76.3;74.4;4.2
FR;2021-10-28;22045;30105;92794;51197324;49971720;2903837;76.3;74.5;4.3
FR;2021-10-29;29938;45016;123187;51227262;50016736;3027024;76.3;74.5;4.5
FR;2021-10-30;19394;32216;52757;51246656;50048952;3079781;76.4;74.6;4.6
FR;2021-10-31;2240;3864;3744;51248896;50052816;3083525;76.4;74.6;4.6
FR;2021-11-01;1719;3897;2880;51250615;50056713;3086405;76.4;74.6;4.6
FR;2021-11-02;22549;35409;97790;51273164;50092122;3184195;76.4;74.6;4.7
FR;2021-11-03;27009;42366;123108;51300173;50134488;3307303;76.4;74.7;4.9
FR;2021-11-04;21267;30664;110286;51321440;50165152;3417589;76.5;74.7;5.1
